{
  "replace": false,
  "values": [
    "tardis:console_steam",
    "tardis:console_nemo",
    "tardis:console_galvanic",
    "tardis:console_coral",
    "tardis:console_hartnell",
    "tardis:console_toyota",
    "tardis:console_xion",
    "tardis:console_neutron",
    "tardis:console_polymedical",
    "tardis:exterior_clock",
    "tardis:exterior_steampunk",
    "tardis:exterior_trunk",
    "tardis:exterior_telephone",
    "tardis:exterior_police_box",
    "tardis:exterior_fortune",
    "tardis:exterior_modern_police_box",
    "tardis:exterior_safe",
    "tardis:exterior_tt_capsule",
    "tardis:exterior_tt2020",
    "tardis:exterior_bokkusu",
    "tardis:exterior_disguise",
    "tardis:bottom_exterior"
  ]
}