{
	"credit": "Made with Blockbench",
	"textures": {
		"0": "tardis:block/clutter_paper",
		"particle": "tardis:block/clutter_paper"
	},
	"elements": [
		{
			"from": [23.37283, 0.05346, 13.16471],
			"to": [30.75283, 0.05346, 18.08471],
			"rotation": {"angle": 22.5, "axis": "y", "origin": [25.83283, 0.05346, 24.23471]},
			"faces": {
				"north": {"uv": [0, 0, 6, 1], "texture": "#0"},
				"east": {"uv": [0, 0, 4, 1], "texture": "#0"},
				"south": {"uv": [0, 0, 6, 1], "texture": "#0"},
				"west": {"uv": [0, 0, 4, 1], "texture": "#0"},
				"up": {"uv": [9, 0, 16, 10], "rotation": 90, "texture": "#0"},
				"down": {"uv": [9, 0, 16, 10], "rotation": 270, "texture": "#0"}
			}
		},
		{
			"from": [-1.84, 0.0615, -11.68],
			"to": [3.08, 0.0615, -4.3],
			"rotation": {"angle": -22.5, "axis": "y", "origin": [-1.84, 0, -7.99]},
			"faces": {
				"north": {"uv": [0, 0, 4, 1], "texture": "#0"},
				"east": {"uv": [0, 0, 6, 1], "texture": "#0"},
				"south": {"uv": [0, 0, 4, 1], "texture": "#0"},
				"west": {"uv": [0, 0, 6, 1], "texture": "#0"},
				"up": {"uv": [0, 0, 7, 10], "texture": "#0"},
				"down": {"uv": [0, 0, 7, 10], "texture": "#0"}
			}
		},
		{
			"from": [-3.68717, 0.05346, -4.05529],
			"to": [3.69283, 0.05346, 0.86471],
			"rotation": {"angle": 22.5, "axis": "y", "origin": [25.83283, 0.05346, 24.23471]},
			"faces": {
				"north": {"uv": [0, 0, 6, 1], "texture": "#0"},
				"east": {"uv": [0, 0, 4, 1], "texture": "#0"},
				"south": {"uv": [0, 0, 6, 1], "texture": "#0"},
				"west": {"uv": [0, 0, 4, 1], "texture": "#0"},
				"up": {"uv": [9, 0, 16, 10], "rotation": 90, "texture": "#0"},
				"down": {"uv": [9, 0, 16, 10], "rotation": 270, "texture": "#0"}
			}
		},
		{
			"from": [-1.5028, 0.04266, -1.7949],
			"to": [5.8772, 0.04266, 3.1251],
			"rotation": {"angle": -22.5, "axis": "y", "origin": [-3.9628, 0.04266, 0.6651]},
			"faces": {
				"north": {"uv": [0, 0, 6, 1], "texture": "#0"},
				"east": {"uv": [0, 0, 4, 1], "texture": "#0"},
				"south": {"uv": [0, 0, 6, 1], "texture": "#0"},
				"west": {"uv": [0, 0, 4, 1], "texture": "#0"},
				"up": {"uv": [9, 0, 16, 10], "rotation": 90, "texture": "#0"},
				"down": {"uv": [9, 0, 16, 10], "rotation": 270, "texture": "#0"}
			}
		},
		{
			"from": [5.58785, 0.03814, 14.01047],
			"to": [12.96785, 0.03814, 18.93047],
			"rotation": {"angle": 22.5, "axis": "y", "origin": [9.27785, 0.03814, 16.47047]},
			"faces": {
				"north": {"uv": [0, 0, 6, 1], "texture": "#0"},
				"east": {"uv": [0, 0, 4, 1], "texture": "#0"},
				"south": {"uv": [0, 0, 6, 1], "texture": "#0"},
				"west": {"uv": [0, 0, 4, 1], "texture": "#0"},
				"up": {"uv": [3, 5, 7, 10], "rotation": 90, "texture": "#0"},
				"down": {"uv": [3, 5, 7, 10], "rotation": 270, "texture": "#0"}
			}
		},
		{
			"from": [4.83821, 0.07355, -2.07437],
			"to": [12.21821, 0.07355, 2.84563],
			"rotation": {"angle": -45, "axis": "y", "origin": [8.52821, 0.07355, -4.53437]},
			"faces": {
				"north": {"uv": [0, 0, 6, 1], "texture": "#0"},
				"east": {"uv": [0, 0, 4, 1], "texture": "#0"},
				"south": {"uv": [0, 0, 6, 1], "texture": "#0"},
				"west": {"uv": [0, 0, 4, 1], "texture": "#0"},
				"up": {"uv": [9, 0, 16, 10], "rotation": 180, "texture": "#0"},
				"down": {"uv": [9, 0, 16, 10], "rotation": 270, "texture": "#0"}
			}
		},
		{
			"from": [6.81785, 0.16114, 9.09047],
			"to": [14.19785, 0.16114, 14.01047],
			"rotation": {"angle": -22.5, "axis": "y", "origin": [9.27785, 0.03814, 16.47047]},
			"faces": {
				"north": {"uv": [0, 0, 6, 1], "texture": "#0"},
				"east": {"uv": [0, 0, 4, 1], "texture": "#0"},
				"south": {"uv": [0, 0, 6, 1], "texture": "#0"},
				"west": {"uv": [0, 0, 4, 1], "texture": "#0"},
				"up": {"uv": [0, 0, 7, 10], "rotation": 90, "texture": "#0"},
				"down": {"uv": [0, 0, 7, 10], "rotation": 270, "texture": "#0"}
			}
		},
		{
			"from": [-11.72785, 0.0023, 17.22134],
			"to": [-4.34785, 0.0023, 22.14134],
			"rotation": {"angle": -45, "axis": "y", "origin": [-8.03785, 0.0023, 19.68134]},
			"faces": {
				"north": {"uv": [0, 0, 6, 1], "texture": "#0"},
				"east": {"uv": [0, 0, 4, 1], "texture": "#0"},
				"south": {"uv": [0, 0, 6, 1], "texture": "#0"},
				"west": {"uv": [0, 0, 4, 1], "texture": "#0"},
				"up": {"uv": [0, 0, 4, 5], "rotation": 90, "texture": "#0"},
				"down": {"uv": [0, 0, 4, 5], "rotation": 270, "texture": "#0"}
			}
		},
		{
			"from": [-4.34785, 0.0023, 15.99134],
			"to": [0.57215, 0.0023, 23.37134],
			"rotation": {"angle": 22.5, "axis": "y", "origin": [-8.03785, 0.0023, 19.68134]},
			"faces": {
				"north": {"uv": [0, 0, 4, 1], "texture": "#0"},
				"east": {"uv": [0, 0, 6, 1], "texture": "#0"},
				"south": {"uv": [0, 0, 4, 1], "texture": "#0"},
				"west": {"uv": [0, 0, 6, 1], "texture": "#0"},
				"up": {"uv": [9, 0, 16, 10], "rotation": 180, "texture": "#0"},
				"down": {"uv": [9, 0, 16, 10], "rotation": 180, "texture": "#0"}
			}
		},
		{
			"from": [-5.57785, 0.0023, 24.60134],
			"to": [-0.65785, 0.0023, 31.98134],
			"rotation": {"angle": 22.5, "axis": "y", "origin": [-8.03785, 0.0023, 19.68134]},
			"faces": {
				"north": {"uv": [0, 0, 4, 1], "texture": "#0"},
				"east": {"uv": [0, 0, 6, 1], "texture": "#0"},
				"south": {"uv": [0, 0, 4, 1], "texture": "#0"},
				"west": {"uv": [0, 0, 6, 1], "texture": "#0"},
				"up": {"uv": [0, 0, 7, 10], "rotation": 180, "texture": "#0"},
				"down": {"uv": [0, 0, 7, 10], "rotation": 180, "texture": "#0"}
			}
		}
	]
}