{
	"credit": "Made with Blockbench",
	"textures": {
		"1": "tardis:block/chair/comfy/wood",
		"particle": "tardis:block/chair/comfy/wood",
		"color": "tardis:block/chair/comfy/red"
	},
	"elements": [
		{
			"from": [1.125, 8, 14],
			"to": [15, 24, 16],
			"faces": {
				"north": {"uv": [1, 0, 15, 16], "texture": "#color"},
				"east": {"uv": [5, 0, 7, 16], "texture": "#color"},
				"south": {"uv": [1, 0, 15, 16], "texture": "#color"},
				"west": {"uv": [12, 0, 14, 16], "texture": "#color"},
				"up": {"uv": [0, 13, 16, 15], "texture": "#color"},
				"down": {"uv": [0, 0, 1, 1], "texture": "#color"}
			}
		},
		{
			"from": [13.925, 9.5, 1],
			"to": [16.025, 11.5, 15],
			"faces": {
				"north": {"uv": [0, 0, 1, 1], "texture": "#color"},
				"east": {"uv": [1, 11, 15, 13], "texture": "#color"},
				"south": {"uv": [0, 0, 1, 1], "texture": "#color"},
				"west": {"uv": [1, 12, 15, 15], "texture": "#color"},
				"up": {"uv": [7, 0, 9, 16], "texture": "#color"},
				"down": {"uv": [0, 0, 1, 1], "texture": "#color"}
			}
		},
		{
			"from": [-0.075, 9.5, 1],
			"to": [2.025, 11.5, 15],
			"rotation": {"angle": 0, "axis": "y", "origin": [-6, 8, 8]},
			"faces": {
				"north": {"uv": [0, 0, 1, 1], "texture": "#color"},
				"east": {"uv": [2, 8, 15, 10], "texture": "#color"},
				"south": {"uv": [0, 0, 1, 1], "texture": "#color"},
				"west": {"uv": [1, 5, 15, 7], "texture": "#color"},
				"up": {"uv": [4, 0, 6, 16], "texture": "#color"},
				"down": {"uv": [0, 0, 1, 1], "texture": "#color"}
			}
		},
		{
			"from": [13.925, 6, 1],
			"to": [15.775, 9.5, 15],
			"faces": {
				"north": {"uv": [0, 0, 1, 1], "texture": "#color"},
				"east": {"uv": [1, 12, 15, 16], "texture": "#color"},
				"south": {"uv": [0, 0, 1, 1], "texture": "#color"},
				"west": {"uv": [1, 0, 15, 5], "texture": "#color"},
				"up": {"uv": [0, 0, 1, 1], "texture": "#color"},
				"down": {"uv": [0, 1, 16, 4], "texture": "#color"}
			}
		},
		{
			"from": [0.175, 6, 1],
			"to": [2.025, 9.5, 15],
			"rotation": {"angle": 0, "axis": "y", "origin": [-6, 8, 8]},
			"faces": {
				"north": {"uv": [0, 0, 1, 1], "texture": "#color"},
				"east": {"uv": [0, 10, 16, 13], "texture": "#color"},
				"south": {"uv": [0, 0, 1, 1], "texture": "#color"},
				"west": {"uv": [0, 0, 16, 4], "texture": "#color"},
				"up": {"uv": [0, 0, 1, 1], "texture": "#color"},
				"down": {"uv": [0, 3, 16, 5], "texture": "#color"}
			}
		},
		{
			"from": [13.925, 11.5, 11.5],
			"to": [16.025, 20.75, 15],
			"faces": {
				"north": {"uv": [4, 0, 8, 10], "texture": "#color"},
				"east": {"uv": [1, 0, 5, 16], "texture": "#color"},
				"south": {"uv": [12, 1, 15, 11], "texture": "#color"},
				"west": {"uv": [7, 1, 11, 10], "texture": "#color"},
				"up": {"uv": [0, 0, 1, 1], "texture": "#color"},
				"down": {"uv": [0, 0, 1, 1], "texture": "#color"}
			}
		},
		{
			"from": [-0.075, 11.5, 11.5],
			"to": [2.025, 20.75, 15],
			"rotation": {"angle": 0, "axis": "y", "origin": [-6, 8, 8]},
			"faces": {
				"north": {"uv": [3, 0, 7, 9], "texture": "#color"},
				"east": {"uv": [3, 2, 6, 11], "texture": "#color"},
				"south": {"uv": [3, 2, 5, 12], "texture": "#color"},
				"west": {"uv": [12, 3, 15, 12], "texture": "#color"},
				"up": {"uv": [0, 0, 1, 1], "texture": "#color"},
				"down": {"uv": [0, 0, 1, 1], "texture": "#color"}
			}
		},
		{
			"from": [1.125, 6, 0],
			"to": [15, 8, 16],
			"faces": {
				"north": {"uv": [0, 14, 16, 16], "texture": "#color"},
				"east": {"uv": [0, 4, 16, 6], "texture": "#color"},
				"south": {"uv": [1, 1, 15, 3], "texture": "#color"},
				"west": {"uv": [0, 4, 16, 6], "texture": "#color"},
				"up": {"uv": [0, 0, 16, 16], "texture": "#color"},
				"down": {"uv": [0, 0, 16, 16], "texture": "#color"}
			}
		},
		{
			"from": [1, 5, 1],
			"to": [15, 6.5, 15],
			"faces": {
				"north": {"uv": [2, 11, 14, 12], "texture": "#1"},
				"east": {"uv": [0, 6, 16, 7], "texture": "#1"},
				"south": {"uv": [0, 6, 16, 7], "texture": "#1"},
				"west": {"uv": [0, 6, 16, 7], "texture": "#1"},
				"up": {"uv": [0, 0, 1, 1], "texture": "#1"},
				"down": {"uv": [2, 1, 13, 15], "texture": "#1"}
			}
		},
		{
			"from": [0.25, 0.25, 0.25],
			"to": [1.75, 1.75, 1.75],
			"rotation": {"angle": 0, "axis": "y", "origin": [8, 8, 8.25]},
			"faces": {
				"north": {"uv": [13, 13, 15, 15], "texture": "#1"},
				"east": {"uv": [11, 13, 13, 15], "texture": "#1"},
				"south": {"uv": [9, 13, 11, 15], "texture": "#1"},
				"west": {"uv": [6, 8, 8, 10], "texture": "#1"},
				"up": {"uv": [8, 6, 10, 8], "texture": "#1"},
				"down": {"uv": [0, 0, 1, 1], "texture": "#1"}
			}
		},
		{
			"from": [0.25, 4.5, 0.25],
			"to": [1.75, 6, 1.75],
			"rotation": {"angle": 0, "axis": "y", "origin": [8, 8, 8.25]},
			"faces": {
				"north": {"uv": [8, 8, 10, 10], "texture": "#1"},
				"east": {"uv": [0, 0, 1, 1], "texture": "#1"},
				"south": {"uv": [9, 9, 11, 11], "texture": "#1"},
				"west": {"uv": [5, 7, 7, 9], "texture": "#1"},
				"up": {"uv": [11, 8, 13, 10], "texture": "#1"},
				"down": {"uv": [0, 0, 1, 1], "texture": "#1"}
			}
		},
		{
			"from": [0.5, 0, 0.5],
			"to": [1.5, 10, 1.5],
			"rotation": {"angle": 0, "axis": "y", "origin": [8, 8, 8.25]},
			"faces": {
				"north": {"uv": [7, 0, 8, 16], "texture": "#1"},
				"east": {"uv": [2, 0, 3, 16], "texture": "#1"},
				"south": {"uv": [10, 0, 11, 16], "texture": "#1"},
				"west": {"uv": [8, 0, 9, 16], "texture": "#1"},
				"up": {"uv": [0, 0, 1, 1], "texture": "#1"},
				"down": {"uv": [0, 0, 1, 1], "texture": "#1"}
			}
		},
		{
			"from": [0.25, 9.75, 0.25],
			"to": [1.75, 11.25, 1],
			"rotation": {"angle": 0, "axis": "y", "origin": [22, 8, 8.25]},
			"faces": {
				"north": {"uv": [8, 6, 10, 8], "texture": "#1"},
				"east": {"uv": [0, 0, 1, 1], "texture": "#1"},
				"south": {"uv": [0, 0, 1, 1], "texture": "#1"},
				"west": {"uv": [0, 0, 1, 1], "texture": "#1"},
				"up": {"uv": [7, 7, 9, 9], "texture": "#1"},
				"down": {"uv": [0, 0, 1, 1], "texture": "#1"}
			}
		},
		{
			"from": [14.25, 0.25, 0.25],
			"to": [15.75, 1.75, 1.75],
			"rotation": {"angle": 0, "axis": "y", "origin": [22, 8, 8.25]},
			"faces": {
				"north": {"uv": [13, 13, 15, 15], "texture": "#1"},
				"east": {"uv": [13, 13, 15, 15], "texture": "#1"},
				"south": {"uv": [10, 13, 12, 15], "texture": "#1"},
				"west": {"uv": [3, 13, 5, 15], "texture": "#1"},
				"up": {"uv": [9, 9, 11, 11], "texture": "#1"},
				"down": {"uv": [0, 0, 1, 1], "texture": "#1"}
			}
		},
		{
			"from": [14.25, 4.5, 0.25],
			"to": [15.75, 6, 1.75],
			"rotation": {"angle": 0, "axis": "y", "origin": [22, 8, 8.25]},
			"faces": {
				"north": {"uv": [6, 8, 8, 10], "texture": "#1"},
				"east": {"uv": [0, 0, 1, 1], "texture": "#1"},
				"south": {"uv": [0, 0, 1, 1], "texture": "#1"},
				"west": {"uv": [0, 0, 1, 1], "texture": "#1"},
				"up": {"uv": [6, 9, 8, 11], "texture": "#1"},
				"down": {"uv": [0, 0, 1, 1], "texture": "#1"}
			}
		},
		{
			"from": [14.25, 9.75, 0.25],
			"to": [15.75, 11.25, 1],
			"rotation": {"angle": 0, "axis": "y", "origin": [22, 8, 8.25]},
			"faces": {
				"north": {"uv": [10, 6, 12, 8], "texture": "#1"},
				"east": {"uv": [0, 0, 1, 1], "texture": "#1"},
				"south": {"uv": [0, 0, 1, 1], "texture": "#1"},
				"west": {"uv": [0, 0, 1, 1], "texture": "#1"},
				"up": {"uv": [4, 6, 6, 8], "texture": "#1"},
				"down": {"uv": [0, 0, 1, 1], "texture": "#1"}
			}
		},
		{
			"from": [14.5, 0, 0.5],
			"to": [15.5, 10, 1.5],
			"rotation": {"angle": 0, "axis": "y", "origin": [22, 8, 8.25]},
			"faces": {
				"north": {"uv": [3, 0, 4, 16], "texture": "#1"},
				"east": {"uv": [3, 0, 4, 16], "texture": "#1"},
				"south": {"uv": [9, 0, 10, 16], "texture": "#1"},
				"west": {"uv": [7, 0, 8, 16], "texture": "#1"},
				"up": {"uv": [0, 0, 1, 1], "texture": "#1"},
				"down": {"uv": [0, 0, 1, 1], "texture": "#1"}
			}
		},
		{
			"from": [14.25, 9.75, 15],
			"to": [15.75, 11.25, 15.75],
			"rotation": {"angle": 0, "axis": "y", "origin": [22, 8, 8]},
			"faces": {
				"north": {"uv": [0, 0, 1, 1], "texture": "#1"},
				"east": {"uv": [7, 6, 9, 8], "texture": "#1"},
				"south": {"uv": [8, 6, 10, 8], "texture": "#1"},
				"west": {"uv": [0, 0, 1, 1], "texture": "#1"},
				"up": {"uv": [8, 6, 10, 8], "texture": "#1"},
				"down": {"uv": [0, 0, 1, 1], "texture": "#1"}
			}
		},
		{
			"from": [14.25, 0.25, 14.25],
			"to": [15.75, 1.75, 15.75],
			"rotation": {"angle": 0, "axis": "y", "origin": [22, 8, 22.25]},
			"faces": {
				"north": {"uv": [5, 8, 7, 10], "texture": "#1"},
				"east": {"uv": [13, 13, 15, 15], "texture": "#1"},
				"south": {"uv": [10, 13, 12, 15], "texture": "#1"},
				"west": {"uv": [10, 10, 12, 12], "texture": "#1"},
				"up": {"uv": [8, 11, 10, 13], "texture": "#1"},
				"down": {"uv": [0, 0, 1, 1], "texture": "#1"}
			}
		},
		{
			"from": [14.25, 4.5, 14.25],
			"to": [15.75, 6, 15.75],
			"rotation": {"angle": 0, "axis": "y", "origin": [22, 8, 22.25]},
			"faces": {
				"north": {"uv": [6, 7, 8, 9], "texture": "#1"},
				"east": {"uv": [4, 6, 6, 8], "texture": "#1"},
				"south": {"uv": [8, 7, 10, 9], "texture": "#1"},
				"west": {"uv": [0, 0, 1, 1], "texture": "#1"},
				"up": {"uv": [8, 6, 10, 8], "texture": "#1"},
				"down": {"uv": [0, 0, 1, 1], "texture": "#1"}
			}
		},
		{
			"from": [14.5, 0, 14.5],
			"to": [15.5, 10, 15.5],
			"rotation": {"angle": 0, "axis": "y", "origin": [22, 8, 22.25]},
			"faces": {
				"north": {"uv": [6, 0, 7, 16], "texture": "#1"},
				"east": {"uv": [5, 0, 6, 16], "texture": "#1"},
				"south": {"uv": [6, 0, 7, 16], "texture": "#1"},
				"west": {"uv": [8, 0, 9, 16], "texture": "#1"},
				"up": {"uv": [0, 0, 1, 1], "texture": "#1"},
				"down": {"uv": [0, 0, 1, 1], "texture": "#1"}
			}
		},
		{
			"from": [0.25, 9.75, 15],
			"to": [1.75, 11.25, 15.75],
			"faces": {
				"north": {"uv": [0, 0, 1, 1], "texture": "#1"},
				"east": {"uv": [0, 0, 1, 1], "texture": "#1"},
				"south": {"uv": [5, 5, 7, 7], "texture": "#1"},
				"west": {"uv": [4, 5, 6, 7], "texture": "#1"},
				"up": {"uv": [8, 5, 10, 7], "texture": "#1"},
				"down": {"uv": [0, 0, 1, 1], "texture": "#1"}
			}
		},
		{
			"from": [0.25, 0.25, 14.25],
			"to": [1.75, 1.75, 15.75],
			"rotation": {"angle": 0, "axis": "y", "origin": [8, 8, 22.25]},
			"faces": {
				"north": {"uv": [14, 14, 16, 16], "texture": "#1"},
				"east": {"uv": [6, 13, 8, 15], "texture": "#1"},
				"south": {"uv": [7, 9, 9, 11], "texture": "#1"},
				"west": {"uv": [6, 7, 8, 9], "texture": "#1"},
				"up": {"uv": [6, 8, 8, 10], "texture": "#1"},
				"down": {"uv": [0, 0, 1, 1], "texture": "#1"}
			}
		},
		{
			"from": [0.25, 4.5, 14.25],
			"to": [1.75, 6, 15.75],
			"rotation": {"angle": 0, "axis": "y", "origin": [8, 8, 22.25]},
			"faces": {
				"north": {"uv": [6, 8, 8, 10], "texture": "#1"},
				"east": {"uv": [0, 0, 1, 1], "texture": "#1"},
				"south": {"uv": [6, 7, 8, 9], "texture": "#1"},
				"west": {"uv": [6, 7, 8, 9], "texture": "#1"},
				"up": {"uv": [4, 4, 6, 6], "texture": "#1"},
				"down": {"uv": [0, 0, 1, 1], "texture": "#1"}
			}
		},
		{
			"from": [0.5, 0, 14.5],
			"to": [1.5, 10, 15.5],
			"rotation": {"angle": 0, "axis": "y", "origin": [8, 8, 22.25]},
			"faces": {
				"north": {"uv": [10, 0, 11, 16], "texture": "#1"},
				"east": {"uv": [9, 0, 10, 16], "texture": "#1"},
				"south": {"uv": [13, 0, 14, 16], "texture": "#1"},
				"west": {"uv": [9, 0, 10, 16], "texture": "#1"},
				"up": {"uv": [0, 0, 1, 1], "texture": "#1"},
				"down": {"uv": [0, 0, 1, 1], "texture": "#1"}
			}
		}
	],
	"display": {
		"thirdperson_righthand": {
			"rotation": [0, 135, 0],
			"translation": [0, 0.5, 0],
			"scale": [0.25, 0.25, 0.25]
		},
		"thirdperson_lefthand": {
			"rotation": [0, 135, 0],
			"translation": [0, 0.5, 0],
			"scale": [0.25, 0.25, 0.25]
		},
		"firstperson_righthand": {
			"rotation": [0, 135, 0],
			"scale": [0.5, 0.5, 0.5]
		},
		"firstperson_lefthand": {
			"rotation": [0, 135, 0],
			"scale": [0.5, 0.5, 0.5]
		},
		"ground": {
			"scale": [0.5, 0.5, 0.5]
		},
		"gui": {
			"rotation": [30, -135, 0],
			"translation": [0, -2.25, 0],
			"scale": [0.5, 0.5, 0.5]
		},
		"fixed": {
			"rotation": [0, 90, 0],
			"scale": [0.5, 0.5, 0.5]
		}
	},
	"groups": [
		{
			"name": "cusion",
			"origin": [8, 8, 8],
			"children": [0, 1, 2, 3, 4, 5, 6, 7]
		},
		{
			"name": "wood",
			"origin": [8, 8, 8],
			"children": [8,
				{
					"name": "leg",
					"origin": [8, 8, 8],
					"children": [9, 10, 11, 12]
				},
				{
					"name": "leg2",
					"origin": [8, 8, 8],
					"children": [13, 14, 15, 16]
				},
				{
					"name": "leg3",
					"origin": [8, 8, 8],
					"children": [17, 18, 19, 20]
				},
				{
					"name": "leg4",
					"origin": [8, 8, 8],
					"children": [21, 22, 23, 24]
				}
			]
		}
	]
}