{
	"credit": "Made with Blockbench",
	"texture_size": [64, 64],
	"textures": {
		"0": "tardis:block/crashchair",
		"particle": "tardis:block/crashchair"
	},
	"elements": [
		{
			"name": "port",
			"from": [5.75, -0.075, 5.75],
			"to": [10.25, 1.425, 10.25],
			"rotation": {"angle": 0, "axis": "y", "origin": [0, -2, 0]},
			"faces": {
				"north": {"uv": [10.25, 3, 11.25, 3.25], "texture": "#0"},
				"east": {"uv": [9.25, 3, 10.25, 3.25], "texture": "#0"},
				"south": {"uv": [12.25, 3, 13.25, 3.25], "texture": "#0"},
				"west": {"uv": [11.25, 3, 12.25, 3.25], "texture": "#0"},
				"up": {"uv": [11.25, 3, 10.25, 2], "texture": "#0"},
				"down": {"uv": [12.25, 2, 11.25, 3], "texture": "#0"}
			}
		},
		{
			"name": "port",
			"from": [6.5, 0.375, 6.5],
			"to": [9.5, 1.875, 9.5],
			"rotation": {"angle": 0, "axis": "y", "origin": [0, -2, 0]},
			"faces": {
				"north": {"uv": [12, 2.75, 12.75, 3], "texture": "#0"},
				"east": {"uv": [11.25, 2.75, 12, 3], "texture": "#0"},
				"south": {"uv": [13.5, 2.75, 14.25, 3], "texture": "#0"},
				"west": {"uv": [12.75, 2.75, 13.5, 3], "texture": "#0"},
				"up": {"uv": [12.75, 2.75, 12, 2], "texture": "#0"},
				"down": {"uv": [13.5, 2, 12.75, 2.75], "texture": "#0"}
			}
		},
		{
			"name": "port",
			"from": [7.4, 1.875, 7.25],
			"to": [8.9, 4.875, 8.75],
			"rotation": {"angle": 0, "axis": "y", "origin": [0, -2, 0]},
			"faces": {
				"north": {"uv": [0.75, 1, 1, 1.75], "texture": "#0"},
				"east": {"uv": [0.5, 1, 0.75, 1.75], "texture": "#0"},
				"south": {"uv": [1.25, 1, 1.5, 1.75], "texture": "#0"},
				"west": {"uv": [1, 1, 1.25, 1.75], "texture": "#0"},
				"up": {"uv": [1, 1, 0.75, 0.75], "texture": "#0"},
				"down": {"uv": [1.25, 0.75, 1, 1], "texture": "#0"}
			}
		},
		{
			"name": "port",
			"from": [6.5, 4.125, 6.5],
			"to": [9.5, 5.625, 9.5],
			"rotation": {"angle": 0, "axis": "y", "origin": [0, -2, 0]},
			"faces": {
				"north": {"uv": [12, 2.75, 12.75, 3], "texture": "#0"},
				"east": {"uv": [11.25, 2.75, 12, 3], "texture": "#0"},
				"south": {"uv": [13.5, 2.75, 14.25, 3], "texture": "#0"},
				"west": {"uv": [12.75, 2.75, 13.5, 3], "texture": "#0"},
				"up": {"uv": [12.75, 2.75, 12, 2], "texture": "#0"},
				"down": {"uv": [13.5, 2, 12.75, 2.75], "texture": "#0"}
			}
		},
		{
			"name": "port",
			"from": [5, 0, 5],
			"to": [6.5, 0.75, 6.5],
			"rotation": {"angle": 0, "axis": "y", "origin": [0, -2, 0]},
			"faces": {
				"north": {"uv": [2.25, 1.25, 2.5, 1.25], "texture": "#0"},
				"east": {"uv": [2, 1.25, 2.25, 1.25], "texture": "#0"},
				"south": {"uv": [2.75, 1.25, 3, 1.25], "texture": "#0"},
				"west": {"uv": [2.5, 1.25, 2.75, 1.25], "texture": "#0"},
				"up": {"uv": [2.5, 1.25, 2.25, 1], "texture": "#0"},
				"down": {"uv": [2.75, 1, 2.5, 1.25], "texture": "#0"}
			}
		},
		{
			"name": "port",
			"from": [5, 0, 9.5],
			"to": [6.5, 0.75, 11],
			"rotation": {"angle": 0, "axis": "y", "origin": [0, -2, 0]},
			"faces": {
				"north": {"uv": [2.25, 1.25, 2.5, 1.25], "texture": "#0"},
				"east": {"uv": [2, 1.25, 2.25, 1.25], "texture": "#0"},
				"south": {"uv": [2.75, 1.25, 3, 1.25], "texture": "#0"},
				"west": {"uv": [2.5, 1.25, 2.75, 1.25], "texture": "#0"},
				"up": {"uv": [2.5, 1.25, 2.25, 1], "texture": "#0"},
				"down": {"uv": [2.75, 1, 2.5, 1.25], "texture": "#0"}
			}
		},
		{
			"name": "port",
			"from": [9.5, 0, 9.5],
			"to": [11, 0.75, 11],
			"rotation": {"angle": 0, "axis": "y", "origin": [0, -2, 0]},
			"faces": {
				"north": {"uv": [2.25, 1.25, 2.5, 1.25], "texture": "#0"},
				"east": {"uv": [2, 1.25, 2.25, 1.25], "texture": "#0"},
				"south": {"uv": [2.75, 1.25, 3, 1.25], "texture": "#0"},
				"west": {"uv": [2.5, 1.25, 2.75, 1.25], "texture": "#0"},
				"up": {"uv": [2.5, 1.25, 2.25, 1], "texture": "#0"},
				"down": {"uv": [2.75, 1, 2.5, 1.25], "texture": "#0"}
			}
		},
		{
			"name": "port",
			"from": [9.5, 0, 5],
			"to": [11, 0.75, 6.5],
			"rotation": {"angle": 0, "axis": "y", "origin": [0, -2, 0]},
			"faces": {
				"north": {"uv": [2.25, 1.25, 2.5, 1.25], "texture": "#0"},
				"east": {"uv": [2, 1.25, 2.25, 1.25], "texture": "#0"},
				"south": {"uv": [2.75, 1.25, 3, 1.25], "texture": "#0"},
				"west": {"uv": [2.5, 1.25, 2.75, 1.25], "texture": "#0"},
				"up": {"uv": [2.5, 1.25, 2.25, 1], "texture": "#0"},
				"down": {"uv": [2.75, 1, 2.5, 1.25], "texture": "#0"}
			}
		},
		{
			"name": "cushion",
			"from": [0.5, 7.45, 3.5],
			"to": [15.5, 8.95, 6.5],
			"rotation": {"angle": 0, "axis": "y", "origin": [0, -2, 0]},
			"faces": {
				"north": {"uv": [1.5, 7.25, 5.25, 7.5], "texture": "#0"},
				"east": {"uv": [0.75, 7.25, 1.5, 7.5], "texture": "#0"},
				"south": {"uv": [6, 7.25, 9.75, 7.5], "texture": "#0"},
				"west": {"uv": [5.25, 7.25, 6, 7.5], "texture": "#0"},
				"up": {"uv": [5.25, 7.25, 1.5, 6.5], "texture": "#0"},
				"down": {"uv": [9, 6.5, 5.25, 7.25], "texture": "#0"}
			}
		},
		{
			"name": "cushion",
			"from": [0.5, 7.45, 7.25],
			"to": [15.5, 8.95, 10.25],
			"rotation": {"angle": 0, "axis": "y", "origin": [0, -2, 0]},
			"faces": {
				"north": {"uv": [1.5, 6.5, 5.25, 6.75], "texture": "#0"},
				"east": {"uv": [0.75, 6.5, 1.5, 6.75], "texture": "#0"},
				"south": {"uv": [6, 6.5, 9.75, 6.75], "texture": "#0"},
				"west": {"uv": [5.25, 6.5, 6, 6.75], "texture": "#0"},
				"up": {"uv": [5.25, 6.5, 1.5, 5.75], "texture": "#0"},
				"down": {"uv": [9, 5.75, 5.25, 6.5], "texture": "#0"}
			}
		},
		{
			"name": "cushion",
			"from": [0.5, 7.45, -0.25],
			"to": [15.5, 8.95, 2.75],
			"rotation": {"angle": 0, "axis": "y", "origin": [0, -2, 0]},
			"faces": {
				"north": {"uv": [1.5, 8.5, 5.25, 8.75], "texture": "#0"},
				"east": {"uv": [0.75, 8.5, 1.5, 8.75], "texture": "#0"},
				"south": {"uv": [6, 8.5, 9.75, 8.75], "texture": "#0"},
				"west": {"uv": [5.25, 8.5, 6, 8.75], "texture": "#0"},
				"up": {"uv": [5.25, 8.5, 1.5, 7.75], "texture": "#0"},
				"down": {"uv": [9, 7.75, 5.25, 8.5], "texture": "#0"}
			}
		},
		{
			"name": "cushion",
			"from": [1.4, 7, -0.85],
			"to": [14.9, 8.5, 11.15],
			"rotation": {"angle": 0, "axis": "y", "origin": [0, -2, 0]},
			"faces": {
				"north": {"uv": [3.25, 12, 6.5, 12.25], "texture": "#0"},
				"east": {"uv": [0.25, 12, 3.25, 12.25], "texture": "#0"},
				"south": {"uv": [9.5, 12, 12.75, 12.25], "texture": "#0"},
				"west": {"uv": [6.5, 12, 9.5, 12.25], "texture": "#0"},
				"up": {"uv": [6.5, 12, 3.25, 9], "texture": "#0"},
				"down": {"uv": [9.75, 9, 6.5, 12], "texture": "#0"}
			}
		},
		{
			"name": "cushion",
			"from": [4.4, 5.5, 0.65],
			"to": [11.9, 7, 12.65],
			"rotation": {"angle": 0, "axis": "y", "origin": [0, -2, 0]},
			"faces": {
				"north": {"uv": [3.5, 5.25, 5.25, 5.5], "texture": "#0"},
				"east": {"uv": [0.5, 5.25, 3.5, 5.5], "texture": "#0"},
				"south": {"uv": [8.25, 5.25, 10, 5.5], "texture": "#0"},
				"west": {"uv": [5.25, 5.25, 8.25, 5.5], "texture": "#0"},
				"up": {"uv": [5.25, 5.25, 3.5, 2.25], "texture": "#0"},
				"down": {"uv": [7, 2.25, 5.25, 5.25], "texture": "#0"}
			}
		},
		{
			"name": "cushion",
			"from": [2.9, 7, -2.35],
			"to": [13.4, 8.5, -0.85],
			"rotation": {"angle": 0, "axis": "y", "origin": [0, -2, 0]},
			"faces": {
				"north": {"uv": [1, 6.75, 3.5, 7], "texture": "#0"},
				"east": {"uv": [0.75, 6.75, 1, 7], "texture": "#0"},
				"south": {"uv": [3.75, 6.75, 6.25, 7], "texture": "#0"},
				"west": {"uv": [3.5, 6.75, 3.75, 7], "texture": "#0"},
				"up": {"uv": [3.5, 6.75, 1, 6.5], "texture": "#0"},
				"down": {"uv": [6, 6.5, 3.5, 6.75], "texture": "#0"}
			}
		},
		{
			"name": "seatback",
			"from": [0.5, 16.47263, 5.23221],
			"to": [15.5, 19.47263, 6.73221],
			"rotation": {"angle": 22.5, "axis": "x", "origin": [0, -2, 0]},
			"faces": {
				"north": {"uv": [1.75, 6.25, 5.5, 7], "texture": "#0"},
				"east": {"uv": [1.5, 6.25, 1.75, 7], "texture": "#0"},
				"south": {"uv": [5.75, 6.25, 9.5, 7], "texture": "#0"},
				"west": {"uv": [5.5, 6.25, 5.75, 7], "texture": "#0"},
				"up": {"uv": [5.5, 6.25, 1.75, 6], "texture": "#0"},
				"down": {"uv": [9.25, 6, 5.5, 6.25], "texture": "#0"}
			}
		},
		{
			"name": "seatback",
			"from": [0.5, 20.22263, 5.23221],
			"to": [15.5, 23.22263, 6.73221],
			"rotation": {"angle": 22.5, "axis": "x", "origin": [0, -2, 0]},
			"faces": {
				"north": {"uv": [1.5, 7, 5.25, 7.75], "texture": "#0"},
				"east": {"uv": [1.25, 7, 1.5, 7.75], "texture": "#0"},
				"south": {"uv": [5.5, 7, 9.25, 7.75], "texture": "#0"},
				"west": {"uv": [5.25, 7, 5.5, 7.75], "texture": "#0"},
				"up": {"uv": [5.25, 7, 1.5, 6.75], "texture": "#0"},
				"down": {"uv": [9, 6.75, 5.25, 7], "texture": "#0"}
			}
		},
		{
			"name": "seatback",
			"from": [0.5, 12.72263, 5.23221],
			"to": [15.5, 15.72263, 6.73221],
			"rotation": {"angle": 22.5, "axis": "x", "origin": [0, -2, 0]},
			"faces": {
				"north": {"uv": [1.5, 8, 5.25, 8.75], "texture": "#0"},
				"east": {"uv": [1.25, 8, 1.5, 8.75], "texture": "#0"},
				"south": {"uv": [5.5, 8, 9.25, 8.75], "texture": "#0"},
				"west": {"uv": [5.25, 8, 5.5, 8.75], "texture": "#0"},
				"up": {"uv": [5.25, 8, 1.5, 7.75], "texture": "#0"},
				"down": {"uv": [9, 7.75, 5.25, 8], "texture": "#0"}
			}
		},
		{
			"name": "seatback",
			"from": [1.65, 11.07263, 5.68221],
			"to": [14.65, 23.07263, 7.18221],
			"rotation": {"angle": 22.5, "axis": "x", "origin": [0, -2, 0]},
			"faces": {
				"north": {"uv": [3.25, 9.25, 6.5, 12.25], "texture": "#0"},
				"east": {"uv": [3, 9.25, 3.25, 12.25], "texture": "#0"},
				"south": {"uv": [6.75, 9.25, 10, 12.25], "texture": "#0"},
				"west": {"uv": [6.5, 9.25, 6.75, 12.25], "texture": "#0"},
				"up": {"uv": [6.5, 9.25, 3.25, 9], "texture": "#0"},
				"down": {"uv": [9.75, 9, 6.5, 9.25], "texture": "#0"}
			}
		},
		{
			"name": "seatback",
			"from": [3.34375, 24.72263, 5.23221],
			"to": [12.34375, 27.72263, 6.73221],
			"rotation": {"angle": 22.5, "axis": "x", "origin": [0, -2, 0]},
			"faces": {
				"north": {"uv": [1.5, 7, 3.75, 7.75], "texture": "#0"},
				"east": {"uv": [1.25, 7, 1.5, 7.75], "texture": "#0"},
				"south": {"uv": [4, 7, 6.25, 7.75], "texture": "#0"},
				"west": {"uv": [3.75, 7, 4, 7.75], "texture": "#0"},
				"up": {"uv": [3.75, 7, 1.5, 6.75], "texture": "#0"},
				"down": {"uv": [6, 6.75, 3.75, 7], "texture": "#0"}
			}
		},
		{
			"name": "seatback",
			"from": [4.4, 21.12263, 6.13221],
			"to": [5.9, 27.12263, 7.63221],
			"rotation": {"angle": 22.5, "axis": "x", "origin": [0, -2, 0]},
			"faces": {
				"north": {"uv": [2, 0.5, 2.25, 2], "texture": "#0"},
				"east": {"uv": [1.75, 0.5, 2, 2], "texture": "#0"},
				"south": {"uv": [2.5, 0.5, 2.75, 2], "texture": "#0"},
				"west": {"uv": [2.25, 0.5, 2.5, 2], "texture": "#0"},
				"up": {"uv": [2.25, 0.5, 2, 0.25], "texture": "#0"},
				"down": {"uv": [2.5, 0.25, 2.25, 0.5], "texture": "#0"}
			}
		},
		{
			"name": "seatback",
			"from": [10.025, 21.12263, 6.13221],
			"to": [11.525, 27.12263, 7.63221],
			"rotation": {"angle": 22.5, "axis": "x", "origin": [0, -2, 0]},
			"faces": {
				"north": {"uv": [2, 0.5, 2.25, 2], "texture": "#0"},
				"east": {"uv": [1.75, 0.5, 2, 2], "texture": "#0"},
				"south": {"uv": [2.5, 0.5, 2.75, 2], "texture": "#0"},
				"west": {"uv": [2.25, 0.5, 2.5, 2], "texture": "#0"},
				"up": {"uv": [2.25, 0.5, 2, 0.25], "texture": "#0"},
				"down": {"uv": [2.5, 0.25, 2.25, 0.5], "texture": "#0"}
			}
		},
		{
			"name": "seatback",
			"from": [14, 8.97263, 5.98221],
			"to": [15.5, 11.97263, 8.98221],
			"rotation": {"angle": 22.5, "axis": "x", "origin": [0, -2, 0]},
			"faces": {
				"north": {"uv": [13, 2.5, 13.25, 3.25], "texture": "#0"},
				"east": {"uv": [12.25, 2.5, 13, 3.25], "texture": "#0"},
				"south": {"uv": [14, 2.5, 14.25, 3.25], "texture": "#0"},
				"west": {"uv": [13.25, 2.5, 14, 3.25], "texture": "#0"},
				"up": {"uv": [13.25, 2.5, 13, 1.75], "texture": "#0"},
				"down": {"uv": [13.5, 1.75, 13.25, 2.5], "texture": "#0"}
			}
		},
		{
			"name": "seatback",
			"from": [3.5, 10.47263, 6.58221],
			"to": [12.5, 22.47263, 8.08221],
			"rotation": {"angle": 22.5, "axis": "x", "origin": [0, -2, 0]},
			"faces": {
				"north": {"uv": [3, 2.5, 5.25, 5.5], "texture": "#0"},
				"east": {"uv": [2.75, 2.5, 3, 5.5], "texture": "#0"},
				"south": {"uv": [5.5, 2.5, 7.75, 5.5], "texture": "#0"},
				"west": {"uv": [5.25, 2.5, 5.5, 5.5], "texture": "#0"},
				"up": {"uv": [5.25, 2.5, 3, 2.25], "texture": "#0"},
				"down": {"uv": [7.5, 2.25, 5.25, 2.5], "texture": "#0"}
			}
		},
		{
			"name": "seatback",
			"from": [-0.25, 9.87263, 6.73221],
			"to": [16.25, 11.37263, 8.23221],
			"rotation": {"angle": 22.5, "axis": "x", "origin": [0, -2, 0]},
			"faces": {
				"north": {"uv": [0.5, 1.25, 4.5, 1.5], "texture": "#0"},
				"east": {"uv": [0.25, 1.25, 0.5, 1.5], "texture": "#0"},
				"south": {"uv": [4.75, 1.25, 8.75, 1.5], "texture": "#0"},
				"west": {"uv": [4.5, 1.25, 4.75, 1.5], "texture": "#0"},
				"up": {"uv": [4.5, 1.25, 0.5, 1], "texture": "#0"},
				"down": {"uv": [8.5, 1, 4.5, 1.25], "texture": "#0"}
			}
		},
		{
			"name": "seatback",
			"from": [0.5, 8.97263, 5.98221],
			"to": [2, 11.97263, 8.98221],
			"rotation": {"angle": 22.5, "axis": "x", "origin": [0, -2, 0]},
			"faces": {
				"north": {"uv": [13, 2.5, 13.25, 3.25], "texture": "#0"},
				"east": {"uv": [12.25, 2.5, 13, 3.25], "texture": "#0"},
				"south": {"uv": [14, 2.5, 14.25, 3.25], "texture": "#0"},
				"west": {"uv": [13.25, 2.5, 14, 3.25], "texture": "#0"},
				"up": {"uv": [13.25, 2.5, 13, 1.75], "texture": "#0"},
				"down": {"uv": [13.5, 1.75, 13.25, 2.5], "texture": "#0"}
			}
		},
		{
			"name": "seatback",
			"from": [2.75, 8.97263, 5.98221],
			"to": [13.25, 11.97263, 8.98221],
			"rotation": {"angle": 22.5, "axis": "x", "origin": [0, -2, 0]},
			"faces": {
				"north": {"uv": [9.75, 1.25, 12.25, 2], "texture": "#0"},
				"east": {"uv": [9, 1.25, 9.75, 2], "texture": "#0"},
				"south": {"uv": [13, 1.25, 15.5, 2], "texture": "#0"},
				"west": {"uv": [12.25, 1.25, 13, 2], "texture": "#0"},
				"up": {"uv": [12.25, 1.25, 9.75, 0.5], "texture": "#0"},
				"down": {"uv": [14.75, 0.5, 12.25, 1.25], "texture": "#0"}
			}
		}
	],
	"display": {
		"thirdperson_righthand": {
			"rotation": [75, 45, 0],
			"translation": [0, 2.5, 0],
			"scale": [0.375, 0.375, 0.375]
		},
		"thirdperson_lefthand": {
			"rotation": [75, 45, 0],
			"translation": [0, 2.5, 0],
			"scale": [0.375, 0.375, 0.375]
		},
		"firstperson_righthand": {
			"rotation": [0, 45, 0],
			"scale": [0.4, 0.4, 0.4]
		},
		"firstperson_lefthand": {
			"rotation": [0, 17, 0],
			"scale": [0.4, 0.4, 0.4]
		},
		"ground": {
			"translation": [0, 3, 0],
			"scale": [0.25, 0.25, 0.25]
		},
		"gui": {
			"rotation": [30, 225, 0],
			"translation": [0, -2.5, 0],
			"scale": [0.5, 0.5, 0.5]
		},
		"head": {
			"translation": [0, 7.5, 0]
		},
		"fixed": {
			"rotation": [0, 90, 0],
			"translation": [0, 0, -1],
			"scale": [0.5, 0.5, 0.5]
		}
	},
	"groups": [
		{
			"name": "crash_chair",
			"origin": [0, 4, 0],
			"children": [
				{
					"name": "post",
					"origin": [0, 0, 0],
					"children": [0, 1, 2, 3, 4, 5, 6, 7]
				},
				{
					"name": "cushion",
					"origin": [0, 6, 0],
					"children": [8, 9, 10, 11, 12, 13]
				},
				{
					"name": "seatback_angle",
					"origin": [0, 0, 0],
					"children": [
						{
							"name": "seatback",
							"origin": [0, -0.375, 0],
							"children": [14, 15, 16, 17, 18, 19, 20, 21, 22, 23, 24, 25]
						}
					]
				}
			]
		}
	]
}