{
	"variants":{
		"facing=north":{
			"model":"tardis:block/monitor/dynamic",
			"y": 0
		},
		"facing=east":{
			"model":"tardis:block/monitor/dynamic",
			"y": 90
		},
		"facing=south":{
			"model":"tardis:block/monitor/dynamic",
			"y": 180
		},
		"facing=west":{
			"model":"tardis:block/monitor/dynamic",
			"y": 270
		}
	}
}