{
	"variants":{
		"facing=north,hanging=true":{
			"model": "tardis:block/steampunk_monitor_hanging",
			"y": 0
		},
		"facing=east,hanging=true":{
			"model": "tardis:block/steampunk_monitor_hanging",
			"y": 90
		},
		"facing=south,hanging=true":{
			"model": "tardis:block/steampunk_monitor_hanging",
			"y": 180
		},
		"facing=west,hanging=true":{
			"model": "tardis:block/steampunk_monitor_hanging",
			"y": 270
		},
		"facing=north,hanging=false":{
			"model": "tardis:block/steampunk_monitor",
			"y": 0
		},
		"facing=east,hanging=false":{
			"model": "tardis:block/steampunk_monitor",
			"y": 90
		},
		"facing=south,hanging=false":{
			"model": "tardis:block/steampunk_monitor",
			"y": 180
		},
		"facing=west,hanging=false":{
			"model": "tardis:block/steampunk_monitor",
			"y": 270
		}
	}
}