{
  "display_name": "Item Attunement",
  "pages": [
    "tardis:attunement/attunement_cover",
    "tardis:attunement/attunement_intro",
    "tardis:attunement/attunement_application",
    "tardis:attunement/attunement_usage"
  ]
}