{
  "display_name": "Flight Events",
  "pages": [
    "tardis:flight/flight_event/flight_event_cover",
    "tardis:flight/flight_event/flight_event_intro",
    "tardis:flight/flight_event/vortex_scrap",
    "tardis:flight/flight_event/time_wind",
    "tardis:flight/flight_event/spatial_drift",
    "tardis:flight/flight_event/artron_flow",
    "tardis:flight/flight_event/artron_pocket",
    "tardis:flight/flight_event/exterior_bulkhead",
    "tardis:flight/flight_event/dimensional_drift",
    "tardis:flight/flight_event/vertical_displacement",
    "tardis:flight/flight_event/time_ram",
    "tardis:flight/flight_event/time_ram_instigate",
    "tardis:flight/flight_event/time_ram_receive"
  ]
}