{
	"credit": "Made with Blockbench",
	"texture_size": [64, 64],
	"textures": {
		"1": "tardis:item/grace_board"
	},
	"elements": [
		{
			"from": [12.75, 0.125, 6.75],
			"to": [16, 1.75, 8.25],
			"faces": {
				"north": {"uv": [16, 5.5, 11, 1], "texture": "#1"},
				"east": {"uv": [16, 5.5, 11, 1], "texture": "#1"},
				"south": {"uv": [16, 5.5, 11, 1], "texture": "#1"},
				"west": {"uv": [11.25, 5, 11.75, 5.5], "texture": "#1"},
				"up": {"uv": [16, 5.5, 11, 1], "texture": "#1"},
				"down": {"uv": [16, 5.5, 11, 1], "texture": "#1"}
			}
		},
		{
			"from": [0, 0.125, 6.75],
			"to": [3.25, 1.75, 8.25],
			"faces": {
				"north": {"uv": [16, 5.5, 11, 1], "texture": "#1"},
				"east": {"uv": [11.25, 5, 11.75, 5.5], "texture": "#1"},
				"south": {"uv": [16, 5.5, 11, 1], "texture": "#1"},
				"west": {"uv": [16, 5.5, 11, 1], "texture": "#1"},
				"up": {"uv": [16, 5.5, 11, 1], "texture": "#1"},
				"down": {"uv": [16, 5.5, 11, 1], "texture": "#1"}
			}
		},
		{
			"from": [10.75, 0.125, 2.75],
			"to": [16, 1.75, 4.25],
			"faces": {
				"north": {"uv": [16, 5.5, 11, 1], "texture": "#1"},
				"east": {"uv": [16, 5.5, 11, 1], "texture": "#1"},
				"south": {"uv": [16, 5.5, 11, 1], "texture": "#1"},
				"west": {"uv": [11.25, 5, 11.75, 5.5], "texture": "#1"},
				"up": {"uv": [16, 5.5, 11, 1], "texture": "#1"},
				"down": {"uv": [16, 5.5, 11, 1], "texture": "#1"}
			}
		},
		{
			"from": [0, 0.125, 2.75],
			"to": [5.25, 1.75, 4.25],
			"faces": {
				"north": {"uv": [16, 5.5, 11, 1], "texture": "#1"},
				"east": {"uv": [12, 5, 12.5, 5.5], "texture": "#1"},
				"south": {"uv": [16, 5.5, 11, 1], "texture": "#1"},
				"west": {"uv": [16, 5.5, 11, 1], "texture": "#1"},
				"up": {"uv": [16, 5.5, 11, 1], "texture": "#1"},
				"down": {"uv": [16, 5.5, 11, 1], "texture": "#1"}
			}
		},
		{
			"from": [11.94542, 0, 0.53936],
			"to": [13.94542, 2, 15.53936],
			"rotation": {"angle": 22.5, "axis": "y", "origin": [11.09351, 8, 9.65415]},
			"faces": {
				"north": {"uv": [7.5, 9, 8, 9.5], "texture": "#1"},
				"east": {"uv": [10.75, 10.5, 6, 6], "texture": "#1"},
				"south": {"uv": [8, 9, 8.5, 9.5], "texture": "#1"},
				"west": {"uv": [10.75, 10.5, 6, 6], "texture": "#1"},
				"up": {"uv": [10.75, 10.5, 6, 6], "texture": "#1"},
				"down": {"uv": [10.75, 10.5, 6, 6], "texture": "#1"}
			}
		},
		{
			"from": [0.56334, 0, 1.71736],
			"to": [2.56334, 2, 16.71736],
			"rotation": {"angle": -22.5, "axis": "y", "origin": [7.10247, 8, 13.89362]},
			"faces": {
				"north": {"uv": [8.5, 9, 9, 9.5], "texture": "#1"},
				"east": {"uv": [10.75, 10.5, 6, 6], "texture": "#1"},
				"south": {"uv": [9, 9, 9.5, 9.5], "texture": "#1"},
				"west": {"uv": [10.75, 10.5, 6, 6], "texture": "#1"},
				"up": {"uv": [10.75, 10.5, 6, 6], "texture": "#1"},
				"down": {"uv": [10.75, 10.5, 6, 6], "texture": "#1"}
			}
		},
		{
			"from": [0.27476, 0.25, 1.544],
			"to": [2.02476, 1.5, 16.794],
			"rotation": {"angle": -22.5, "axis": "y", "origin": [7.02583, 8, 14.02892]},
			"faces": {
				"north": {"uv": [4.75, 4.5, 5.25, 4.75], "texture": "#1"},
				"east": {"uv": [6.5, 2.75, 10.25, 3], "texture": "#1"},
				"south": {"uv": [0.5, 9.5, 1, 9.75], "texture": "#1"},
				"west": {"uv": [15.75, 9.5, 12, 9], "texture": "#1"},
				"up": {"uv": [15.75, 9.5, 12, 9], "texture": "#1"},
				"down": {"uv": [15.75, 9.5, 12, 9], "texture": "#1"}
			}
		},
		{
			"from": [13.54321, 0.25, 2.30647],
			"to": [15.54321, 1.5, 17.55647],
			"rotation": {"angle": 22.5, "axis": "y", "origin": [6.94707, 8, 14.0506]},
			"faces": {
				"north": {"uv": [4.5, 9.5, 5, 9.75], "texture": "#1"},
				"east": {"uv": [15.75, 9.5, 12, 9], "texture": "#1"},
				"south": {"uv": [5.25, 9.5, 5.75, 9.75], "texture": "#1"},
				"west": {"uv": [7, 0.75, 10.75, 1], "texture": "#1"},
				"up": {"uv": [15.75, 9.5, 12, 9], "texture": "#1"},
				"down": {"uv": [15.75, 9.5, 12, 9], "texture": "#1"}
			}
		},
		{
			"from": [-0.0195, 0, 14],
			"to": [15.9805, 2, 16],
			"rotation": {"angle": 0, "axis": "y", "origin": [7.9805, 8, 8]},
			"faces": {
				"north": {"uv": [10.75, 10.5, 6, 6], "texture": "#1"},
				"east": {"uv": [10.75, 10.5, 6, 6], "texture": "#1"},
				"south": {"uv": [10.75, 10.5, 6, 6], "texture": "#1"},
				"west": {"uv": [10.75, 10.5, 6, 6], "texture": "#1"},
				"up": {"uv": [10.75, 10.5, 6, 6], "texture": "#1"},
				"down": {"uv": [10.75, 10.5, 6, 6], "texture": "#1"}
			}
		},
		{
			"from": [-0.2695, 0.25, 14],
			"to": [16.2305, 1.5, 16.25],
			"rotation": {"angle": 0, "axis": "y", "origin": [7.9805, 8, 8]},
			"faces": {
				"north": {"uv": [5.25, 5, 9.5, 5.25], "texture": "#1"},
				"east": {"uv": [15.75, 9.5, 12, 9], "texture": "#1"},
				"south": {"uv": [15.75, 9.5, 12, 9], "texture": "#1"},
				"west": {"uv": [15.75, 9.5, 12, 9], "texture": "#1"},
				"up": {"uv": [15.75, 9.5, 12, 9], "texture": "#1"},
				"down": {"uv": [15.75, 9.5, 12, 9], "texture": "#1"}
			}
		},
		{
			"from": [5.74025, 0, 0.14181],
			"to": [10.24025, 2, 2.14181],
			"rotation": {"angle": 0, "axis": "y", "origin": [7.99025, 8, 8.14181]},
			"faces": {
				"north": {"uv": [10.75, 10.5, 6, 6], "texture": "#1"},
				"east": {"uv": [1, 9.25, 1.5, 9.75], "texture": "#1"},
				"south": {"uv": [10.75, 10.5, 6, 6], "texture": "#1"},
				"west": {"uv": [5.75, 9.25, 6.25, 9.75], "texture": "#1"},
				"up": {"uv": [10.75, 10.5, 6, 6], "texture": "#1"},
				"down": {"uv": [10.75, 10.5, 6, 6], "texture": "#1"}
			}
		},
		{
			"from": [5.58208, 0.25, -0.08916],
			"to": [10.39458, 1.5, 1.91084],
			"rotation": {"angle": 0, "axis": "y", "origin": [8.14458, 8, 8.16084]},
			"faces": {
				"north": {"uv": [15.75, 9.5, 12, 9], "texture": "#1"},
				"east": {"uv": [9.5, 1.25, 10, 1.5], "texture": "#1"},
				"south": {"uv": [8.75, 0.25, 10, 0.5], "texture": "#1"},
				"west": {"uv": [9.5, 5, 10, 5.25], "texture": "#1"},
				"up": {"uv": [15.75, 9.5, 12, 9], "texture": "#1"},
				"down": {"uv": [15.75, 9.5, 12, 9], "texture": "#1"}
			}
		},
		{
			"from": [5.5, 0.125, 2],
			"to": [10.5, 1.75, 14],
			"faces": {
				"north": {"uv": [6.5, 8, 7.75, 8.5], "texture": "#1"},
				"east": {"uv": [5.25, 5.25, 8.25, 5.75], "texture": "#1"},
				"south": {"uv": [7.75, 8, 9, 8.5], "texture": "#1"},
				"west": {"uv": [5.25, 4.5, 8.25, 5], "texture": "#1"},
				"up": {"uv": [4.5, 16, 0, 11], "texture": "#1"},
				"down": {"uv": [2.5, 1.25, 1.25, 4.25], "texture": "#1"}
			}
		},
		{
			"from": [3.5, 0.125, 5.75],
			"to": [5.5, 1.75, 14],
			"faces": {
				"north": {"uv": [9.25, 1.5, 9.75, 2], "texture": "#1"},
				"east": {"uv": [5.5, 0.25, 7.5, 0.75], "texture": "#1"},
				"south": {"uv": [9.25, 3, 9.75, 3.5], "texture": "#1"},
				"west": {"uv": [5.25, 5.75, 7.25, 6.25], "texture": "#1"},
				"up": {"uv": [4.5, 16, 0, 11], "texture": "#1"},
				"down": {"uv": [4.5, 5, 4, 7], "texture": "#1"}
			}
		},
		{
			"from": [10.5, 0.125, 5.75],
			"to": [12.5, 1.75, 14],
			"faces": {
				"north": {"uv": [9.25, 3.5, 9.75, 4], "texture": "#1"},
				"east": {"uv": [5.25, 6.25, 7.25, 6.75], "texture": "#1"},
				"south": {"uv": [9.25, 4, 9.75, 4.5], "texture": "#1"},
				"west": {"uv": [6.25, 3, 8.25, 3.5], "texture": "#1"},
				"up": {"uv": [4.5, 16, 0, 11], "texture": "#1"},
				"down": {"uv": [0.5, 6.75, 0, 8.75], "texture": "#1"}
			}
		},
		{
			"from": [1.5, 0.125, 10.5],
			"to": [3.5, 1.75, 14],
			"faces": {
				"north": {"uv": [9.25, 4.5, 9.75, 5], "texture": "#1"},
				"east": {"uv": [8.25, 1.75, 9.25, 2.25], "texture": "#1"},
				"south": {"uv": [9.25, 5.25, 9.75, 5.75], "texture": "#1"},
				"west": {"uv": [8.25, 3, 9.25, 3.5], "texture": "#1"},
				"up": {"uv": [4.5, 16, 0, 11], "texture": "#1"},
				"down": {"uv": [4, 8.5, 3.5, 9.5], "texture": "#1"}
			}
		},
		{
			"from": [12.5, 0.125, 10.5],
			"to": [14.5, 1.75, 14],
			"faces": {
				"north": {"uv": [9.25, 5.75, 9.75, 6.25], "texture": "#1"},
				"east": {"uv": [8.25, 4.5, 9.25, 5], "texture": "#1"},
				"south": {"uv": [9.25, 6.25, 9.75, 6.75], "texture": "#1"},
				"west": {"uv": [8.25, 5.25, 9.25, 5.75], "texture": "#1"},
				"up": {"uv": [4.5, 16, 0, 11], "texture": "#1"},
				"down": {"uv": [5, 8.5, 4.5, 9.5], "texture": "#1"}
			}
		},
		{
			"from": [8.75, 1.625, 5.75],
			"to": [9.25, 2.25, 11.75],
			"faces": {
				"north": {"uv": [16, 5.5, 11, 1], "texture": "#1"},
				"east": {"uv": [16, 5.5, 11, 1], "texture": "#1"},
				"south": {"uv": [1, 3.25, 1.25, 3.5], "texture": "#1"},
				"west": {"uv": [16, 5.5, 11, 1], "texture": "#1"},
				"up": {"uv": [16, 5.5, 11, 1], "texture": "#1"},
				"down": {"uv": [13.25, 3, 13, 4.5], "texture": "#1"}
			}
		},
		{
			"from": [6, 1.625, 6.75],
			"to": [10, 2.5, 10.75],
			"faces": {
				"north": {"uv": [16, 11, 13, 8], "texture": "#1"},
				"east": {"uv": [16, 11, 13, 8], "texture": "#1"},
				"south": {"uv": [16, 11, 13, 8], "texture": "#1"},
				"west": {"uv": [16, 11, 13, 8], "texture": "#1"},
				"up": {"uv": [16, 11, 13, 8], "texture": "#1"},
				"down": {"uv": [12.25, 6.75, 11.25, 7.75], "texture": "#1"}
			}
		},
		{
			"from": [6.5, 1.875, 7.25],
			"to": [9.5, 2.75, 10.25],
			"faces": {
				"north": {"uv": [16, 16, 11.25, 11.25], "texture": "#1"},
				"east": {"uv": [16, 16, 11.25, 11.25], "texture": "#1"},
				"south": {"uv": [16, 16, 11.25, 11.25], "texture": "#1"},
				"west": {"uv": [16, 16, 11.25, 11.25], "texture": "#1"},
				"up": {"uv": [16, 16, 11.25, 11.25], "texture": "#1"},
				"down": {"uv": [9, 1, 8.25, 1.75], "texture": "#1"}
			}
		},
		{
			"from": [6.75, 1.625, 5.75],
			"to": [7.25, 2.25, 11.75],
			"faces": {
				"north": {"uv": [16, 5.5, 11, 1], "texture": "#1"},
				"east": {"uv": [16, 5.5, 11, 1], "texture": "#1"},
				"south": {"uv": [1, 3.75, 1.25, 4], "texture": "#1"},
				"west": {"uv": [16, 5.5, 11, 1], "texture": "#1"},
				"up": {"uv": [16, 5.5, 11, 1], "texture": "#1"},
				"down": {"uv": [13.25, 2, 13, 3.5], "texture": "#1"}
			}
		},
		{
			"from": [7.75, 1.625, 4.75],
			"to": [8.25, 2.25, 12.5],
			"faces": {
				"north": {"uv": [16, 5.5, 11, 1], "texture": "#1"},
				"east": {"uv": [16, 5.5, 11, 1], "texture": "#1"},
				"south": {"uv": [16, 5.5, 11, 1], "texture": "#1"},
				"west": {"uv": [16, 5.5, 11, 1], "texture": "#1"},
				"up": {"uv": [16, 5.5, 11, 1], "texture": "#1"},
				"down": {"uv": [13.25, 2.75, 13, 5], "texture": "#1"}
			}
		},
		{
			"from": [4, 1.625, 11.75],
			"to": [7.25, 2.25, 12.25],
			"faces": {
				"north": {"uv": [16, 5.5, 11, 1], "texture": "#1"},
				"east": {"uv": [16, 5.5, 11, 1], "texture": "#1"},
				"south": {"uv": [16, 5.5, 11, 1], "texture": "#1"},
				"west": {"uv": [16, 5.5, 11, 1], "texture": "#1"},
				"up": {"uv": [16, 5.5, 11, 1], "texture": "#1"},
				"down": {"uv": [12.5, 4.5, 11.75, 4.75], "texture": "#1"}
			}
		},
		{
			"from": [8.75, 1.625, 11.75],
			"to": [12, 2.25, 12.25],
			"faces": {
				"north": {"uv": [16, 5.5, 11, 1], "texture": "#1"},
				"east": {"uv": [16, 5.5, 11, 1], "texture": "#1"},
				"south": {"uv": [16, 5.5, 11, 1], "texture": "#1"},
				"west": {"uv": [16, 5.5, 11, 1], "texture": "#1"},
				"up": {"uv": [16, 5.5, 11, 1], "texture": "#1"},
				"down": {"uv": [12.25, 4.5, 11.5, 4.75], "texture": "#1"}
			}
		},
		{
			"from": [7.34375, 1.375, 12.34375],
			"to": [8.59375, 2.5, 13.59375],
			"faces": {
				"north": {"uv": [6, 11, 11, 16], "texture": "#1"},
				"east": {"uv": [6, 11, 11, 16], "texture": "#1"},
				"south": {"uv": [6, 11, 11, 16], "texture": "#1"},
				"west": {"uv": [6, 11, 11, 16], "texture": "#1"},
				"up": {"uv": [6, 11, 11, 16], "texture": "#1"},
				"down": {"uv": [9, 15, 10, 16], "texture": "#1"}
			}
		},
		{
			"from": [7.34375, 1.375, 3.59375],
			"to": [8.59375, 2.5, 4.84375],
			"faces": {
				"north": {"uv": [6, 11, 11, 16], "texture": "#1"},
				"east": {"uv": [6, 11, 11, 16], "texture": "#1"},
				"south": {"uv": [6, 11, 11, 16], "texture": "#1"},
				"west": {"uv": [6, 11, 11, 16], "texture": "#1"},
				"up": {"uv": [6, 11, 11, 16], "texture": "#1"},
				"down": {"uv": [9, 15, 10, 16], "texture": "#1"}
			}
		},
		{
			"from": [8.46875, 1.375, 5.09375],
			"to": [9.71875, 2.5, 6.34375],
			"faces": {
				"north": {"uv": [6, 11, 11, 16], "texture": "#1"},
				"east": {"uv": [6, 11, 11, 16], "texture": "#1"},
				"south": {"uv": [6, 11, 11, 16], "texture": "#1"},
				"west": {"uv": [6, 11, 11, 16], "texture": "#1"},
				"up": {"uv": [6, 11, 11, 16], "texture": "#1"},
				"down": {"uv": [9, 15, 10, 16], "texture": "#1"}
			}
		},
		{
			"from": [10.96875, 1.375, 11.34375],
			"to": [12.21875, 2.5, 12.59375],
			"faces": {
				"north": {"uv": [6, 11, 11, 16], "texture": "#1"},
				"east": {"uv": [6, 11, 11, 16], "texture": "#1"},
				"south": {"uv": [6, 11, 11, 16], "texture": "#1"},
				"west": {"uv": [6, 11, 11, 16], "texture": "#1"},
				"up": {"uv": [6, 11, 11, 16], "texture": "#1"},
				"down": {"uv": [9, 15, 10, 16], "texture": "#1"}
			}
		},
		{
			"from": [3.71875, 1.375, 11.34375],
			"to": [4.96875, 2.5, 12.59375],
			"faces": {
				"north": {"uv": [6, 11, 11, 16], "texture": "#1"},
				"east": {"uv": [6, 11, 11, 16], "texture": "#1"},
				"south": {"uv": [6, 11, 11, 16], "texture": "#1"},
				"west": {"uv": [6, 11, 11, 16], "texture": "#1"},
				"up": {"uv": [6, 11, 11, 16], "texture": "#1"},
				"down": {"uv": [9, 15, 10, 16], "texture": "#1"}
			}
		},
		{
			"from": [6.3125, 1.375, 5.09375],
			"to": [7.5625, 2.5, 6.34375],
			"faces": {
				"north": {"uv": [6, 11, 11, 16], "texture": "#1"},
				"east": {"uv": [6, 11, 11, 16], "texture": "#1"},
				"south": {"uv": [6, 11, 11, 16], "texture": "#1"},
				"west": {"uv": [6, 11, 11, 16], "texture": "#1"},
				"up": {"uv": [6, 11, 11, 16], "texture": "#1"},
				"down": {"uv": [9, 15, 10, 16], "texture": "#1"}
			}
		}
	],
	"display": {
		"thirdperson_righthand": {
			"rotation": [75, 45, 0],
			"translation": [0, 2.5, 2],
			"scale": [0.375, 0.375, -0.375]
		},
		"thirdperson_lefthand": {
			"rotation": [75, 45, 0],
			"translation": [0, 2.5, 2.25],
			"scale": [0.375, 0.375, -0.375]
		},
		"firstperson_righthand": {
			"rotation": [0, 45, 0],
			"translation": [0, 4, 0],
			"scale": [0.4, 0.4, -0.4]
		},
		"firstperson_lefthand": {
			"rotation": [0, -135, 0],
			"translation": [0, 4, 0],
			"scale": [0.4, 0.4, -0.4]
		},
		"ground": {
			"translation": [0, 3, 0],
			"scale": [0.25, 0.25, 0.25]
		},
		"gui": {
			"rotation": [45, -22.5, 0],
			"translation": [0, 2.25, 0],
			"scale": [0.625, 0.625, -0.625]
		},
		"head": {
			"translation": [0, 14.5, 0]
		},
		"fixed": {
			"rotation": [-90, 0, 0],
			"translation": [0, 0, -3.75],
			"scale": [0.5, 0.5, 0.5]
		}
	},
	"groups": [
		{
			"name": "temporal_grace",
			"origin": [8, 8, 8],
			"children": [
				{
					"name": "mounts",
					"origin": [8, 8, 8],
					"children": [0, 1, 2, 3]
				},
				{
					"name": "frame",
					"origin": [8, 8, 8],
					"children": [4, 5, 6, 7, 8, 9, 10, 11]
				},
				{
					"name": "board",
					"origin": [8, 8, 8],
					"children": [12, 13, 14, 15, 16]
				},
				{
					"name": "chip",
					"origin": [8, 8, 8],
					"children": [17, 18, 19, 20, 21, 22, 23]
				},
				{
					"name": "lights",
					"origin": [8, 8, 8],
					"children": [24, 25, 26, 27, 28, 29]
				}
			]
		}
	]
}