{
	"type": "tardis:quantiscope",
	"repair":false,
	"ingredients":[
		{"item":"tardis:xion_crystal"},
		{"item":"tardis:circuits"},
		{"item":"minecraft:red_dye"},
		{"item":"minecraft:green_dye"},
		{"item":"minecraft:blue_dye"}
	],
	"result":{
		"item":"tardis:subsystem/chameleon_circuit"
	}
}