{
	"type": "tardis:quantiscope",
	"repair": true,
	"repair_item":"tardis:subsystem/shield_generator",
	"ingredients":[
		{"item":"minecraft:gold_ingot"},
		{"item":"tardis:circuits"},
		{"item":"minecraft:redstone_block"}
	]
}