{
	"type": "tardis:quantiscope",
	"repair": false,
	"ingredients":[
		{"item":"tardis:mercury_bottle"},
		{"item":"minecraft:redstone_block"},
		{"item":"tardis:artron_capacitor"},
		{"item":"minecraft:blaze_powder"},
		{"item":"minecraft:blaze_powder"}
	],
	"result":{
		"item":"tardis:artron_capacitor_mid"
	}
	
}