{
	"type": "tardis:quantiscope",
	"repair":false,
	"ingredients":[
		{"item":"tardis:blank_upgrade"},
		{"item":"minecraft:redstone"},
		{"item":"minecraft:prismarine_crystals"},
		{"item":"minecraft:bucket"}
	],
	"result":{
		"item":"tardis:upgrades/electro_convert"
	}
}