{
  "type": "minecraft:crafting_shapeless",
  "ingredients": [
	  {
	  	"item": "minecraft:glass"
	  },
	  {
	 	 "item": "tardis:xion_crystal"
	  }
  ],
  "result": {
    "item": "tardis:moon_base_glass"
  }
}