{
  "type": "minecraft:block",
  "pools": [
    {
      "name": "tardis:roundel/cut_red_sandstone_offset",
      "rolls": 1,
      "entries": [
        {
          "type": "minecraft:item",
          "name": "tardis:roundel/cut_red_sandstone_offset"
        }
      ]
    }
  ]
}