{
  "type": "normal",
  "text": "Forge Energy Use. Timeships also allow for the use of Forge Energy (FE). Each timeship contains an internal FE buffer that can be used anywhere in the interior. This is seperate to the Artron Buffer. It functions as an 'enderchest' for power, and can be accessed anywhere inside your time-ship by use of Roundel Taps, or outside via the exterior."
}