{
	"credit": "Made with Blockbench",
	"texture_size": [32, 32],
	"textures": {
		"21": "tardis:item/sonics/mk6_activator"
	},
	"elements": [
		{
			"from": [7.5, 2, 4.5],
			"to": [8.5, 2.75, 6.75],
			"faces": {
				"north": {"uv": [2, 3, 2.5, 3.5], "texture": "#21"},
				"east": {"uv": [5, 3, 6, 3.5], "texture": "#21"},
				"south": {"uv": [5.5, 3.5, 6, 4], "texture": "#21"},
				"west": {"uv": [5, 4.5, 6, 5], "texture": "#21"},
				"up": {"uv": [1.5, 6.5, 1, 5.5], "texture": "#21"},
				"down": {"uv": [2, 5.5, 1.5, 6.5], "texture": "#21"}
			}
		},
		{
			"from": [8.5, 2.125, 4.75],
			"to": [9, 2.5, 5],
			"faces": {
				"north": {"uv": [5.5, 5, 6, 5.5], "texture": "#21"},
				"east": {"uv": [0.5, 9, 1, 9.5], "texture": "#21"},
				"south": {"uv": [4.5, 9, 5, 9.5], "texture": "#21"},
				"west": {"uv": [6, 9, 6.5, 9.5], "texture": "#21"},
				"up": {"uv": [9.5, 3, 9, 2.5], "texture": "#21"},
				"down": {"uv": [9.5, 3, 9, 3.5], "texture": "#21"}
			}
		},
		{
			"from": [7.625, 2.75, 4.625],
			"to": [8.375, 3.125, 5],
			"faces": {
				"north": {"uv": [9, 3.5, 9.5, 4], "texture": "#21"},
				"east": {"uv": [9, 4, 9.5, 4.5], "texture": "#21"},
				"south": {"uv": [9, 4.5, 9.5, 5], "texture": "#21"},
				"west": {"uv": [9, 5, 9.5, 5.5], "texture": "#21"},
				"up": {"uv": [9.5, 6, 9, 5.5], "texture": "#21"},
				"down": {"uv": [9.5, 6, 9, 6.5], "texture": "#21"}
			}
		},
		{
			"from": [7.75, 2.75, 5],
			"to": [8.25, 3, 6],
			"faces": {
				"north": {"uv": [9, 6.5, 9.5, 7], "texture": "#21"},
				"east": {"uv": [9, 7, 9.5, 7.5], "texture": "#21"},
				"south": {"uv": [9, 7.5, 9.5, 8], "texture": "#21"},
				"west": {"uv": [9, 8, 9.5, 8.5], "texture": "#21"},
				"up": {"uv": [1, 10, 0.5, 9.5], "texture": "#21"},
				"down": {"uv": [1.5, 9.5, 1, 10], "texture": "#21"}
			}
		},
		{
			"from": [7.625, 2.75, 6],
			"to": [8.375, 3, 6.625],
			"faces": {
				"north": {"uv": [1.5, 9.5, 2, 10], "texture": "#21"},
				"east": {"uv": [2, 9.5, 2.5, 10], "texture": "#21"},
				"south": {"uv": [2.5, 9.5, 3, 10], "texture": "#21"},
				"west": {"uv": [3, 9.5, 3.5, 10], "texture": "#21"},
				"up": {"uv": [4, 10, 3.5, 9.5], "texture": "#21"},
				"down": {"uv": [4.5, 9.5, 4, 10], "texture": "#21"}
			}
		},
		{
			"from": [7.625, 0.5, 2.125],
			"to": [8.375, 2.625, 2.875],
			"faces": {
				"north": {"uv": [5.5, 5.5, 6, 6.5], "texture": "#21"},
				"east": {"uv": [2, 6, 2.5, 7], "texture": "#21"},
				"south": {"uv": [2.5, 6, 3, 7], "texture": "#21"},
				"west": {"uv": [3, 6, 3.5, 7], "texture": "#21"},
				"up": {"uv": [5, 10, 4.5, 9.5], "texture": "#21"},
				"down": {"uv": [5.5, 9.5, 5, 10], "texture": "#21"}
			}
		},
		{
			"from": [8.375, 1, 2.125],
			"to": [9, 2.125, 5.09375],
			"faces": {
				"north": {"uv": [5.5, 9.5, 6, 10], "texture": "#21"},
				"east": {"uv": [4, 2, 5.5, 2.5], "texture": "#21"},
				"south": {"uv": [6, 9.5, 6.5, 10], "texture": "#21"},
				"west": {"uv": [4, 3.5, 5.5, 4], "texture": "#21"},
				"up": {"uv": [5, 6, 4.5, 4.5], "texture": "#21"},
				"down": {"uv": [5.5, 5, 5, 6.5], "texture": "#21"}
			}
		},
		{
			"from": [8.59375, 1.5, 3.875],
			"to": [9.0625, 1.6875, 6.375],
			"faces": {
				"north": {"uv": [6.5, 9.5, 7, 10], "texture": "#21"},
				"east": {"uv": [4.5, 4, 6, 4.5], "texture": "#21"},
				"south": {"uv": [7, 9.5, 7.5, 10], "texture": "#21"},
				"west": {"uv": [5, 2.5, 6.5, 3], "texture": "#21"},
				"up": {"uv": [0.5, 7, 0, 5.5], "texture": "#21"},
				"down": {"uv": [1, 5.5, 0.5, 7], "texture": "#21"}
			}
		},
		{
			"from": [7.75, 0.375, 2.25],
			"to": [8.25, 2.75, 2.75],
			"faces": {
				"north": {"uv": [3.5, 6, 4, 7], "texture": "#21"},
				"east": {"uv": [4.5, 6, 5, 7], "texture": "#21"},
				"south": {"uv": [6, 6, 6.5, 7], "texture": "#21"},
				"west": {"uv": [6, 3, 6.5, 4], "texture": "#21"},
				"up": {"uv": [8, 10, 7.5, 9.5], "texture": "#21"},
				"down": {"uv": [8.5, 9.5, 8, 10], "texture": "#21"}
			}
		},
		{
			"name": "octagon",
			"from": [1.59849, 2.98937, 6.53225],
			"to": [2.45213, 5.05023, 6.769],
			"rotation": {"angle": 45, "axis": "z", "origin": [8, 9.99449, 7.0829]},
			"faces": {
				"north": {"uv": [6, 4, 6.5, 5], "texture": "#21"},
				"east": {"uv": [6, 5, 6.5, 6], "texture": "#21"},
				"south": {"uv": [1, 6.5, 1.5, 7.5], "texture": "#21"},
				"west": {"uv": [1.5, 6.5, 2, 7.5], "texture": "#21"},
				"up": {"uv": [9, 10, 8.5, 9.5], "texture": "#21"},
				"down": {"uv": [9.5, 9.5, 9, 10], "texture": "#21"}
			}
		},
		{
			"name": "octagon",
			"from": [7.57318, 0.51457, 6.53225],
			"to": [8.42682, 2.57543, 6.769],
			"rotation": {"angle": 0, "axis": "y", "origin": [8, 9.99449, 7.0829]},
			"faces": {
				"north": {"uv": [4, 6.5, 4.5, 7.5], "texture": "#21"},
				"east": {"uv": [5, 6.5, 5.5, 7.5], "texture": "#21"},
				"south": {"uv": [5.5, 6.5, 6, 7.5], "texture": "#21"},
				"west": {"uv": [6.5, 6.5, 7, 7.5], "texture": "#21"},
				"up": {"uv": [10, 10, 9.5, 9.5], "texture": "#21"},
				"down": {"uv": [10, 0, 9.5, 0.5], "texture": "#21"}
			}
		},
		{
			"name": "octagon",
			"from": [0.99488, 3.59298, 6.53225],
			"to": [3.05574, 4.44662, 6.769],
			"rotation": {"angle": 45, "axis": "z", "origin": [8, 9.99449, 7.0829]},
			"faces": {
				"north": {"uv": [5.5, 2, 6.5, 2.5], "texture": "#21"},
				"east": {"uv": [9.5, 0.5, 10, 1], "texture": "#21"},
				"south": {"uv": [6.5, 0, 7.5, 0.5], "texture": "#21"},
				"west": {"uv": [9.5, 1, 10, 1.5], "texture": "#21"},
				"up": {"uv": [7.5, 1, 6.5, 0.5], "texture": "#21"},
				"down": {"uv": [7.5, 1, 6.5, 1.5], "texture": "#21"}
			}
		},
		{
			"name": "octagon",
			"from": [6.96957, 1.11818, 6.53225],
			"to": [9.03043, 1.97182, 6.769],
			"rotation": {"angle": 0, "axis": "y", "origin": [8, 9.99449, 7.0829]},
			"faces": {
				"north": {"uv": [6.5, 1.5, 7.5, 2], "texture": "#21"},
				"east": {"uv": [9.5, 1.5, 10, 2], "texture": "#21"},
				"south": {"uv": [6.5, 2, 7.5, 2.5], "texture": "#21"},
				"west": {"uv": [9.5, 2, 10, 2.5], "texture": "#21"},
				"up": {"uv": [7.5, 3, 6.5, 2.5], "texture": "#21"},
				"down": {"uv": [7.5, 3, 6.5, 3.5], "texture": "#21"}
			}
		},
		{
			"name": "octagon",
			"from": [1.59849, 2.98937, 1.53225],
			"to": [2.45213, 5.05023, 1.769],
			"rotation": {"angle": 45, "axis": "z", "origin": [8, 9.99449, 7.0829]},
			"faces": {
				"north": {"uv": [6.5, 3.5, 7, 4.5], "texture": "#21"},
				"east": {"uv": [6.5, 4.5, 7, 5.5], "texture": "#21"},
				"south": {"uv": [6.5, 5.5, 7, 6.5], "texture": "#21"},
				"west": {"uv": [0, 7, 0.5, 8], "texture": "#21"},
				"up": {"uv": [10, 3, 9.5, 2.5], "texture": "#21"},
				"down": {"uv": [10, 3, 9.5, 3.5], "texture": "#21"}
			}
		},
		{
			"name": "octagon",
			"from": [7.57318, 0.51457, 1.53225],
			"to": [8.42682, 2.57543, 1.769],
			"rotation": {"angle": 0, "axis": "y", "origin": [8, 9.99449, 7.0829]},
			"faces": {
				"north": {"uv": [0.5, 7, 1, 8], "texture": "#21"},
				"east": {"uv": [2, 7, 2.5, 8], "texture": "#21"},
				"south": {"uv": [2.5, 7, 3, 8], "texture": "#21"},
				"west": {"uv": [3, 7, 3.5, 8], "texture": "#21"},
				"up": {"uv": [10, 4, 9.5, 3.5], "texture": "#21"},
				"down": {"uv": [10, 4, 9.5, 4.5], "texture": "#21"}
			}
		},
		{
			"name": "octagon",
			"from": [0.99488, 3.59298, 1.53225],
			"to": [3.05574, 4.44662, 1.769],
			"rotation": {"angle": 45, "axis": "z", "origin": [8, 9.99449, 7.0829]},
			"faces": {
				"north": {"uv": [7, 7, 8, 7.5], "texture": "#21"},
				"east": {"uv": [9.5, 4.5, 10, 5], "texture": "#21"},
				"south": {"uv": [7, 3.5, 8, 4], "texture": "#21"},
				"west": {"uv": [9.5, 5, 10, 5.5], "texture": "#21"},
				"up": {"uv": [8, 4.5, 7, 4], "texture": "#21"},
				"down": {"uv": [8, 4.5, 7, 5], "texture": "#21"}
			}
		},
		{
			"name": "octagon",
			"from": [6.96957, 1.11818, 1.53225],
			"to": [9.03043, 1.97182, 1.769],
			"rotation": {"angle": 0, "axis": "y", "origin": [8, 9.99449, 7.0829]},
			"faces": {
				"north": {"uv": [7, 5, 8, 5.5], "texture": "#21"},
				"east": {"uv": [9.5, 5.5, 10, 6], "texture": "#21"},
				"south": {"uv": [7, 5.5, 8, 6], "texture": "#21"},
				"west": {"uv": [9.5, 6, 10, 6.5], "texture": "#21"},
				"up": {"uv": [8, 6.5, 7, 6], "texture": "#21"},
				"down": {"uv": [8, 6.5, 7, 7], "texture": "#21"}
			}
		},
		{
			"name": "octagon",
			"from": [1.59849, 2.98937, 1.03225],
			"to": [2.45213, 5.05023, 1.269],
			"rotation": {"angle": 45, "axis": "z", "origin": [8, 9.99449, 7.0829]},
			"faces": {
				"north": {"uv": [3.5, 7, 4, 8], "texture": "#21"},
				"east": {"uv": [4.5, 7, 5, 8], "texture": "#21"},
				"south": {"uv": [6, 7, 6.5, 8], "texture": "#21"},
				"west": {"uv": [1, 7.5, 1.5, 8.5], "texture": "#21"},
				"up": {"uv": [10, 7, 9.5, 6.5], "texture": "#21"},
				"down": {"uv": [10, 7, 9.5, 7.5], "texture": "#21"}
			}
		},
		{
			"name": "octagon",
			"from": [7.57318, 0.51457, 1.03225],
			"to": [8.42682, 2.57543, 1.269],
			"rotation": {"angle": 0, "axis": "y", "origin": [8, 9.99449, 7.0829]},
			"faces": {
				"north": {"uv": [1.5, 7.5, 2, 8.5], "texture": "#21"},
				"east": {"uv": [4, 7.5, 4.5, 8.5], "texture": "#21"},
				"south": {"uv": [5, 7.5, 5.5, 8.5], "texture": "#21"},
				"west": {"uv": [5.5, 7.5, 6, 8.5], "texture": "#21"},
				"up": {"uv": [10, 8, 9.5, 7.5], "texture": "#21"},
				"down": {"uv": [10, 8, 9.5, 8.5], "texture": "#21"}
			}
		},
		{
			"name": "octagon",
			"from": [0.99488, 3.59298, 1.03225],
			"to": [3.05574, 4.44662, 1.269],
			"rotation": {"angle": 45, "axis": "z", "origin": [8, 9.99449, 7.0829]},
			"faces": {
				"north": {"uv": [6.5, 7.5, 7.5, 8], "texture": "#21"},
				"east": {"uv": [9.5, 8.5, 10, 9], "texture": "#21"},
				"south": {"uv": [7.5, 7.5, 8.5, 8], "texture": "#21"},
				"west": {"uv": [9.5, 9, 10, 9.5], "texture": "#21"},
				"up": {"uv": [8.5, 0.5, 7.5, 0], "texture": "#21"},
				"down": {"uv": [8.5, 0.5, 7.5, 1], "texture": "#21"}
			}
		},
		{
			"name": "octagon",
			"from": [6.96957, 1.11818, 1.03225],
			"to": [9.03043, 1.97182, 1.269],
			"rotation": {"angle": 0, "axis": "y", "origin": [8, 9.99449, 7.0829]},
			"faces": {
				"north": {"uv": [7.5, 1, 8.5, 1.5], "texture": "#21"},
				"east": {"uv": [0, 10, 0.5, 10.5], "texture": "#21"},
				"south": {"uv": [7.5, 1.5, 8.5, 2], "texture": "#21"},
				"west": {"uv": [0.5, 10, 1, 10.5], "texture": "#21"},
				"up": {"uv": [8.5, 2.5, 7.5, 2], "texture": "#21"},
				"down": {"uv": [8.5, 2.5, 7.5, 3], "texture": "#21"}
			}
		},
		{
			"name": "octagon",
			"from": [1.18988, 3.08156, 6.7747],
			"to": [2.09801, 5.27397, 7.02655],
			"rotation": {"angle": 45, "axis": "z", "origin": [8, 10.53382, 7.11049]},
			"faces": {
				"north": {"uv": [0, 8, 0.5, 9], "texture": "#21"},
				"east": {"uv": [0.5, 8, 1, 9], "texture": "#21"},
				"south": {"uv": [2, 8, 2.5, 9], "texture": "#21"},
				"west": {"uv": [2.5, 8, 3, 9], "texture": "#21"},
				"up": {"uv": [1.5, 10.5, 1, 10], "texture": "#21"},
				"down": {"uv": [2, 10, 1.5, 10.5], "texture": "#21"}
			}
		},
		{
			"name": "octagon",
			"from": [7.54594, 0.4488, 6.7747],
			"to": [8.45406, 2.6412, 7.02655],
			"rotation": {"angle": 0, "axis": "y", "origin": [8, 10.53382, 7.11049]},
			"faces": {
				"north": {"uv": [3, 8, 3.5, 9], "texture": "#21"},
				"east": {"uv": [3.5, 8, 4, 9], "texture": "#21"},
				"south": {"uv": [4.5, 8, 5, 9], "texture": "#21"},
				"west": {"uv": [6, 8, 6.5, 9], "texture": "#21"},
				"up": {"uv": [2.5, 10.5, 2, 10], "texture": "#21"},
				"down": {"uv": [3, 10, 2.5, 10.5], "texture": "#21"}
			}
		},
		{
			"name": "octagon",
			"from": [0.54774, 3.7237, 6.7747],
			"to": [2.74015, 4.63183, 7.02655],
			"rotation": {"angle": 45, "axis": "z", "origin": [8, 10.53382, 7.11049]},
			"faces": {
				"north": {"uv": [7.5, 3, 8.5, 3.5], "texture": "#21"},
				"east": {"uv": [3, 10, 3.5, 10.5], "texture": "#21"},
				"south": {"uv": [6.5, 8, 7.5, 8.5], "texture": "#21"},
				"west": {"uv": [3.5, 10, 4, 10.5], "texture": "#21"},
				"up": {"uv": [8.5, 8.5, 7.5, 8], "texture": "#21"},
				"down": {"uv": [9, 3.5, 8, 4], "texture": "#21"}
			}
		},
		{
			"name": "octagon",
			"from": [6.9038, 1.09094, 6.7747],
			"to": [9.0962, 1.99906, 7.02655],
			"rotation": {"angle": 0, "axis": "y", "origin": [8, 10.53382, 7.11049]},
			"faces": {
				"north": {"uv": [8, 4, 9, 4.5], "texture": "#21"},
				"east": {"uv": [4, 10, 4.5, 10.5], "texture": "#21"},
				"south": {"uv": [8, 4.5, 9, 5], "texture": "#21"},
				"west": {"uv": [4.5, 10, 5, 10.5], "texture": "#21"},
				"up": {"uv": [9, 5.5, 8, 5], "texture": "#21"},
				"down": {"uv": [9, 5.5, 8, 6], "texture": "#21"}
			}
		},
		{
			"name": "octagon",
			"from": [1.18988, 3.08156, 1.2747],
			"to": [2.09801, 5.27397, 1.52655],
			"rotation": {"angle": 45, "axis": "z", "origin": [8, 10.53382, 7.11049]},
			"faces": {
				"north": {"uv": [8, 6, 8.5, 7], "texture": "#21"},
				"east": {"uv": [1, 8.5, 1.5, 9.5], "texture": "#21"},
				"south": {"uv": [1.5, 8.5, 2, 9.5], "texture": "#21"},
				"west": {"uv": [4, 8.5, 4.5, 9.5], "texture": "#21"},
				"up": {"uv": [5.5, 10.5, 5, 10], "texture": "#21"},
				"down": {"uv": [6, 10, 5.5, 10.5], "texture": "#21"}
			}
		},
		{
			"name": "octagon",
			"from": [7.54594, 0.4488, 1.2747],
			"to": [8.45406, 2.6412, 1.52655],
			"rotation": {"angle": 0, "axis": "y", "origin": [8, 10.53382, 7.11049]},
			"faces": {
				"north": {"uv": [5, 8.5, 5.5, 9.5], "texture": "#21"},
				"east": {"uv": [5.5, 8.5, 6, 9.5], "texture": "#21"},
				"south": {"uv": [6.5, 8.5, 7, 9.5], "texture": "#21"},
				"west": {"uv": [7, 8.5, 7.5, 9.5], "texture": "#21"},
				"up": {"uv": [6.5, 10.5, 6, 10], "texture": "#21"},
				"down": {"uv": [7, 10, 6.5, 10.5], "texture": "#21"}
			}
		},
		{
			"name": "octagon",
			"from": [0.54774, 3.7237, 1.2747],
			"to": [2.74015, 4.63183, 1.52655],
			"rotation": {"angle": 45, "axis": "z", "origin": [8, 10.53382, 7.11049]},
			"faces": {
				"north": {"uv": [8, 7, 9, 7.5], "texture": "#21"},
				"east": {"uv": [7, 10, 7.5, 10.5], "texture": "#21"},
				"south": {"uv": [7.5, 8.5, 8.5, 9], "texture": "#21"},
				"west": {"uv": [7.5, 10, 8, 10.5], "texture": "#21"},
				"up": {"uv": [9.5, 9, 8.5, 8.5], "texture": "#21"},
				"down": {"uv": [9.5, 0, 8.5, 0.5], "texture": "#21"}
			}
		},
		{
			"name": "octagon",
			"from": [6.9038, 1.09094, 1.2747],
			"to": [9.0962, 1.99906, 1.52655],
			"rotation": {"angle": 0, "axis": "y", "origin": [8, 10.53382, 7.11049]},
			"faces": {
				"north": {"uv": [8.5, 0.5, 9.5, 1], "texture": "#21"},
				"east": {"uv": [8, 10, 8.5, 10.5], "texture": "#21"},
				"south": {"uv": [8.5, 1, 9.5, 1.5], "texture": "#21"},
				"west": {"uv": [8.5, 10, 9, 10.5], "texture": "#21"},
				"up": {"uv": [9.5, 2, 8.5, 1.5], "texture": "#21"},
				"down": {"uv": [9.5, 2, 8.5, 2.5], "texture": "#21"}
			}
		},
		{
			"name": "octagon",
			"from": [2.25358, 2.84156, 1.7109],
			"to": [3.01986, 4.69153, 6.5466],
			"rotation": {"angle": 45, "axis": "z", "origin": [8, 9.12983, 8.55211]},
			"faces": {
				"north": {"uv": [8.5, 2.5, 9, 3.5], "texture": "#21"},
				"east": {"uv": [0, 0, 2.5, 1], "texture": "#21"},
				"south": {"uv": [8.5, 6, 9, 7], "texture": "#21"},
				"west": {"uv": [0, 1, 2.5, 2], "texture": "#21"},
				"up": {"uv": [3.5, 6, 3, 3.5], "texture": "#21"},
				"down": {"uv": [4, 3.5, 3.5, 6], "texture": "#21"}
			}
		},
		{
			"name": "octagon",
			"from": [7.61686, 0.62002, 1.7109],
			"to": [8.38314, 2.46998, 6.5466],
			"rotation": {"angle": 0, "axis": "y", "origin": [8, 9.12983, 8.55211]},
			"faces": {
				"north": {"uv": [8.5, 7.5, 9, 8.5], "texture": "#21"},
				"east": {"uv": [0, 2, 2.5, 3], "texture": "#21"},
				"south": {"uv": [0, 9, 0.5, 10], "texture": "#21"},
				"west": {"uv": [2.5, 2.5, 5, 3.5], "texture": "#21"},
				"up": {"uv": [4, 2.5, 3.5, 0], "texture": "#21"},
				"down": {"uv": [4.5, 4, 4, 6.5], "texture": "#21"}
			}
		},
		{
			"name": "octagon",
			"from": [1.71173, 3.3834, 1.7109],
			"to": [3.5617, 4.14969, 6.5466],
			"rotation": {"angle": 45, "axis": "z", "origin": [8, 9.12983, 8.55211]},
			"faces": {
				"north": {"uv": [2, 9, 3, 9.5], "texture": "#21"},
				"east": {"uv": [4, 0, 6.5, 0.5], "texture": "#21"},
				"south": {"uv": [3, 9, 4, 9.5], "texture": "#21"},
				"west": {"uv": [4, 0.5, 6.5, 1], "texture": "#21"},
				"up": {"uv": [3.5, 2.5, 2.5, 0], "texture": "#21"},
				"down": {"uv": [1, 3, 0, 5.5], "texture": "#21"}
			}
		},
		{
			"name": "octagon",
			"from": [7.07502, 1.16186, 1.7109],
			"to": [8.92498, 1.92814, 6.5466],
			"rotation": {"angle": 0, "axis": "y", "origin": [8, 9.12983, 8.55211]},
			"faces": {
				"north": {"uv": [7.5, 9, 8.5, 9.5], "texture": "#21"},
				"east": {"uv": [4, 1, 6.5, 1.5], "texture": "#21"},
				"south": {"uv": [8.5, 9, 9.5, 9.5], "texture": "#21"},
				"west": {"uv": [4, 1.5, 6.5, 2], "texture": "#21"},
				"up": {"uv": [2, 5.5, 1, 3], "texture": "#21"},
				"down": {"uv": [3, 3.5, 2, 6], "texture": "#21"}
			}
		},
		{
			"name": "octagon",
			"from": [8.51125, -0.17585, 8.55324],
			"to": [9.27, 0.35434, 9.83324],
			"rotation": {"angle": 45, "axis": "x", "origin": [8, 8, 8]},
			"faces": {
				"north": {"uv": [9, 10, 9.5, 10.5], "texture": "#21"},
				"east": {"uv": [9.5, 10, 10, 10.5], "texture": "#21"},
				"south": {"uv": [10, 10, 10.5, 10.5], "texture": "#21"},
				"west": {"uv": [10, 0, 10.5, 0.5], "texture": "#21"},
				"up": {"uv": [10.5, 1, 10, 0.5], "texture": "#21"},
				"down": {"uv": [10.5, 1, 10, 1.5], "texture": "#21"}
			}
		},
		{
			"name": "octagon",
			"from": [8.51125, 1.2974, 2.61],
			"to": [9.27, 1.8276, 3.89],
			"faces": {
				"north": {"uv": [10, 1.5, 10.5, 2], "texture": "#21"},
				"east": {"uv": [10, 2, 10.5, 2.5], "texture": "#21"},
				"south": {"uv": [10, 2.5, 10.5, 3], "texture": "#21"},
				"west": {"uv": [10, 3, 10.5, 3.5], "texture": "#21"},
				"up": {"uv": [10.5, 4, 10, 3.5], "texture": "#21"},
				"down": {"uv": [10.5, 4, 10, 4.5], "texture": "#21"}
			}
		},
		{
			"name": "octagon",
			"from": [8.51125, -0.55076, 8.92815],
			"to": [9.27, 0.72924, 9.45834],
			"rotation": {"angle": 45, "axis": "x", "origin": [8, 8, 8]},
			"faces": {
				"north": {"uv": [10, 4.5, 10.5, 5], "texture": "#21"},
				"east": {"uv": [10, 5, 10.5, 5.5], "texture": "#21"},
				"south": {"uv": [10, 5.5, 10.5, 6], "texture": "#21"},
				"west": {"uv": [10, 6, 10.5, 6.5], "texture": "#21"},
				"up": {"uv": [10.5, 7, 10, 6.5], "texture": "#21"},
				"down": {"uv": [10.5, 7, 10, 7.5], "texture": "#21"}
			}
		},
		{
			"name": "octagon",
			"from": [8.51125, 0.9225, 2.9849],
			"to": [9.27, 2.2025, 3.5151],
			"faces": {
				"north": {"uv": [10, 7.5, 10.5, 8], "texture": "#21"},
				"east": {"uv": [10, 8, 10.5, 8.5], "texture": "#21"},
				"south": {"uv": [10, 8.5, 10.5, 9], "texture": "#21"},
				"west": {"uv": [10, 9, 10.5, 9.5], "texture": "#21"},
				"up": {"uv": [10.5, 10, 10, 9.5], "texture": "#21"},
				"down": {"uv": [0.5, 10.5, 0, 11], "texture": "#21"}
			}
		},
		{
			"name": "octagon",
			"from": [9.26344, 0.69332, 5.90162],
			"to": [9.42406, 0.95842, 6.54162],
			"rotation": {"angle": 45, "axis": "x", "origin": [8.57031, 4.78125, 5.625]},
			"faces": {
				"north": {"uv": [0.5, 10.5, 1, 11], "texture": "#21"},
				"east": {"uv": [1, 10.5, 1.5, 11], "texture": "#21"},
				"south": {"uv": [1.5, 10.5, 2, 11], "texture": "#21"},
				"west": {"uv": [2, 10.5, 2.5, 11], "texture": "#21"},
				"up": {"uv": [3, 11, 2.5, 10.5], "texture": "#21"},
				"down": {"uv": [3.5, 10.5, 3, 11], "texture": "#21"}
			}
		},
		{
			"name": "octagon",
			"from": [9.26344, 1.42995, 2.93],
			"to": [9.42406, 1.69505, 3.57],
			"rotation": {"angle": 0, "axis": "y", "origin": [8.57031, 4.78125, 5.625]},
			"faces": {
				"north": {"uv": [3.5, 10.5, 4, 11], "texture": "#21"},
				"east": {"uv": [4, 10.5, 4.5, 11], "texture": "#21"},
				"south": {"uv": [4.5, 10.5, 5, 11], "texture": "#21"},
				"west": {"uv": [5, 10.5, 5.5, 11], "texture": "#21"},
				"up": {"uv": [6, 11, 5.5, 10.5], "texture": "#21"},
				"down": {"uv": [6.5, 10.5, 6, 11], "texture": "#21"}
			}
		},
		{
			"name": "octagon",
			"from": [9.26344, 0.50587, 6.08907],
			"to": [9.42406, 1.14587, 6.35417],
			"rotation": {"angle": 45, "axis": "x", "origin": [8.57031, 4.78125, 5.625]},
			"faces": {
				"north": {"uv": [6.5, 10.5, 7, 11], "texture": "#21"},
				"east": {"uv": [7, 10.5, 7.5, 11], "texture": "#21"},
				"south": {"uv": [7.5, 10.5, 8, 11], "texture": "#21"},
				"west": {"uv": [8, 10.5, 8.5, 11], "texture": "#21"},
				"up": {"uv": [9, 11, 8.5, 10.5], "texture": "#21"},
				"down": {"uv": [9.5, 10.5, 9, 11], "texture": "#21"}
			}
		},
		{
			"name": "octagon",
			"from": [9.26344, 1.2425, 3.11745],
			"to": [9.42406, 1.8825, 3.38255],
			"rotation": {"angle": 0, "axis": "y", "origin": [8.57031, 4.78125, 5.625]},
			"faces": {
				"north": {"uv": [9.5, 10.5, 10, 11], "texture": "#21"},
				"east": {"uv": [10, 10.5, 10.5, 11], "texture": "#21"},
				"south": {"uv": [10.5, 10.5, 11, 11], "texture": "#21"},
				"west": {"uv": [10.5, 0, 11, 0.5], "texture": "#21"},
				"up": {"uv": [11, 1, 10.5, 0.5], "texture": "#21"},
				"down": {"uv": [11, 1, 10.5, 1.5], "texture": "#21"}
			}
		}
	],
	"display": {
		"thirdperson_righthand": {
			"rotation": [90, 0, 0],
			"translation": [0, 0, 3],
			"scale": [0.5, 0.5, 0.5]
		},
		"thirdperson_lefthand": {
			"rotation": [90, 0, 0],
			"translation": [0, 0, 3],
			"scale": [0.5, 0.5, 0.5]
		},
		"firstperson_righthand": {
			"rotation": [90, 0, 30]
		},
		"firstperson_lefthand": {
			"rotation": [90, 0, 30]
		},
		"fixed": {
			"rotation": [90, 45, 0],
			"translation": [1.25, -1.75, 6]
		},
		"ground": {
			"translation": [0, 4, 0]
		},
		"gui": {
			"rotation": [90, 0, 30],
			"translation": [-3, -4, 0]
		}
	}
}