{
  "parent": "block/cube_bottom_top",
  "textures": {
    "side": "tardis:block/roundel/chiseled_quartz_full",
    "top": "tardis:block/roundel/chiseled_quartz_top_full",
    "bottom": "tardis:block/roundel/chiseled_quartz_top_full"
  }
}