{
  "replace": false,
  "values": [
    "minecraft:sea_pickle",
    "minecraft:birch_sapling",
    "minecraft:bread",
    "minecraft:cocoa_beans",
    "minecraft:sunflower",
    "minecraft:cornflower",
    "minecraft:tall_grass",
    "minecraft:sweet_berries",
    "minecraft:beetroot",
    "minecraft:carved_pumpkin",
    "minecraft:cactus",
    "minecraft:dried_kelp",
    "minecraft:beetroot_seeds",
    "minecraft:jungle_leaves",
    "minecraft:melon",
    "minecraft:vine",
    "minecraft:allium",
    "minecraft:pumpkin_seeds",
    "minecraft:baked_potato",
    "minecraft:acacia_leaves",
    "minecraft:cake",
    "minecraft:jungle_sapling",
    "minecraft:cookie",
    "minecraft:rose_bush",
    "minecraft:brown_mushroom",
    "minecraft:dried_kelp_block",
    "minecraft:melon_slice",
    "minecraft:wheat",
    "minecraft:dandelion",
    "minecraft:kelp",
    "minecraft:red_mushroom_block",
    "minecraft:melon_seeds",
    "minecraft:dark_oak_leaves",
    "minecraft:spruce_leaves",
    "minecraft:fern",
    "minecraft:pumpkin",
    "minecraft:lily_of_the_valley",
    "minecraft:pumpkin_pie",
    "minecraft:apple",
    "minecraft:oak_leaves",
    "minecraft:red_tulip",
    "minecraft:brown_mushroom_block",
    "minecraft:poppy",
    "minecraft:red_mushroom",
    "minecraft:azure_bluet",
    "minecraft:mushroom_stem",
    "minecraft:lily_pad",
    "minecraft:oak_sapling",
    "minecraft:lilac",
    "minecraft:birch_leaves",
    "minecraft:sugar_cane",
    "minecraft:blue_orchid",
    "minecraft:orange_tulip",
    "minecraft:spruce_sapling",
    "minecraft:dark_oak_sapling",
    "minecraft:carrot",
    "minecraft:wheat_seeds",
    "minecraft:oxeye_daisy",
    "minecraft:potato",
    "minecraft:wither_rose",
    "minecraft:large_fern",
    "minecraft:peony",
    "minecraft:grass",
    "minecraft:acacia_sapling",
    "minecraft:seagrass",
    "minecraft:hay_block",
    "minecraft:white_tulip",
    "minecraft:pink_tulip"
  ]
}