{
  "type": "normal",
  "text": "Coordinate Increment Modifier (XYZ Incrementer). This controls by how many blocks the Real-Space controls move you. This affects the X, Y, Z, and Randomizer control."
}