{
  "type": "normal",
  "text": "Randomizer. This scrambles your timeship's destination coordinates, making it extremely difficult to track. If you don't know where you are bound, how could others?"
}